{
    "success": true,
    "data": {
        "id": 78720,
        "type_product": {
            "id": 3,
            "name": "internet",
            "content": []
        },
        "images": [
            {
                "id": 12341,
                "link": "https://resources.sears.com.mx/medios-plazavip/fotos/productos_sears1/original/2481799.jpg",
                "order": 1
            },
            {
                "id": 12342,
                "link": "https://resources.sears.com.mx/medios-plazavip/fotos/productos_sears1/original/2481800.jpg",
                "order": 2
            },
            {
                "id": 12343,
                "link": "https://resources.sears.com.mx/medios-plazavip/fotos/productos_sears1/original/2481803.jpg",
                "order": 3
            },
            {
                "id": 12344,
                "link": "https://resources.sears.com.mx/medios-plazavip/fotos/productos_sears1/original/2481801.jpg",
                "order": 4
            },
            {
                "id": 12345,
                "link": "https://resources.sears.com.mx/medios-plazavip/fotos/productos_sears1/original/2481804.jpg",
                "order": 5
            },
            {
                "id": 12346,
                "link": "https://resources.sears.com.mx/medios-plazavip/fotos/productos_sears1/original/2481810.jpg",
                "order": 6
            },
            {
                "id": 12347,
                "link": "https://resources.sears.com.mx/medios-plazavip/fotos/productos_sears1/original/2481811.jpg",
                "order": 7
            },
            {
                "id": 12348,
                "link": "https://resources.sears.com.mx/medios-plazavip/fotos/productos_sears1/original/2481814.jpg",
                "order": 8
            },
            {
                "id": 12349,
                "link": "https://resources.sears.com.mx/medios-plazavip/fotos/productos_sears1/original/2481812.jpg",
                "order": 9
            },
            {
                "id": 123410,
                "link": "https://resources.sears.com.mx/medios-plazavip/fotos/productos_sears1/original/2481815.jpg",
                "order": 10
            },
            {
                "id": 123411,
                "link": "https://resources.sears.com.mx/medios-plazavip/fotos/productos_sears1/original/2481783.jpg",
                "order": 11
            },
            {
                "id": 123412,
                "link": "https://resources.sears.com.mx/medios-plazavip/fotos/productos_sears1/original/2481784.jpg",
                "order": 12
            },
            {
                "id": 123413,
                "link": "https://resources.sears.com.mx/medios-plazavip/fotos/productos_sears1/original/2481786.jpg",
                "order": 13
            },
            {
                "id": 123414,
                "link": "https://resources.sears.com.mx/medios-plazavip/fotos/productos_sears1/original/2481787.jpg",
                "order": 14
            },
            {
                "id": 123415,
                "link": "https://resources.sears.com.mx/medios-plazavip/fotos/productos_sears1/original/2481787.jpg",
                "order": 15
            },
            {
                "id": 123416,
                "link": "https://resources.sears.com.mx/medios-plazavip/fotos/productos_sears1/original/2481791.jpg",
                "order": 16
            },
            {
                "id": 123417,
                "link": "https://resources.sears.com.mx/medios-plazavip/fotos/productos_sears1/original/2481802.jpg",
                "order": 17
            },
            {
                "id": 123418,
                "link": "https://resources.sears.com.mx/medios-plazavip/fotos/productos_sears1/original/2481805.jpg",
                "order": 18
            },
            {
                "id": 123419,
                "link": "https://resources.sears.com.mx/medios-plazavip/fotos/productos_sears1/original/2481806.jpg",
                "order": 19
            },
            {
                "id": 123420,
                "link": "https://resources.sears.com.mx/medios-plazavip/fotos/productos_sears1/original/2481794.jpg",
                "order": 20
            }
        ],
        "videos": [],
        "search_factor": 0,
        "title": "Polo Jaspeada Polo Club",
        "brand": "POLO CLUB",
        "sku": "51927781",
        "price": 299,
        "sale_price": 449,
        "discount": 0,
        "stock": 100,
        "colors": [
            {
                "color": "Blanco",
                "sizes": [
                    {
                        "size": "CH",
                        "stock": 100,
                        "sku": 51927781,
                        "status": true
                    },
                    {
                        "size": "M",
                        "stock": 100,
                        "sku": 51927781,
                        "status": true
                    },
                    {
                        "size": "G",
                        "stock": 100,
                        "sku": 51927781,
                        "status": true
                    },
                    {
                        "size": "XG",
                        "stock": 100,
                        "sku": 51927781,
                        "status": true
                    }
                ]
            },
            {
                "color": "Negro",
                "sizes": [
                    {
                        "size": "CH",
                        "stock": 100,
                        "sku": 51927781,
                        "status": true
                    },
                    {
                        "size": "M",
                        "stock": 100,
                        "sku": 51927781,
                        "status": true
                    },
                    {
                        "size": "G",
                        "stock": 100,
                        "sku": 51927781,
                        "status": true
                    },
                    {
                        "size": "XG",
                        "stock": 100,
                        "sku": 51927781,
                        "status": true
                    }
                ]
            },
            {
                "color": "Azul Oscuro",
                "sizes": [
                    {
                        "size": "CH",
                        "stock": 100,
                        "sku": 51927781,
                        "status": true
                    },
                    {
                        "size": "M",
                        "stock": 100,
                        "sku": 51927781,
                        "status": true
                    },
                    {
                        "size": "G",
                        "stock": 100,
                        "sku": 51927781,
                        "status": true
                    },
                    {
                        "size": "XG",
                        "stock": 100,
                        "sku": 51927781,
                        "status": true
                    }
                ]
            },
            {
                "color": "Rojo",
                "sizes": [
                    {
                        "size": "CH",
                        "stock": 100,
                        "sku": 51927781,
                        "status": true
                    },
                    {
                        "size": "M",
                        "stock": 100,
                        "sku": 51927781,
                        "status": true
                    },
                    {
                        "size": "G",
                        "stock": 100,
                        "sku": 51927781,
                        "status": true
                    },
                    {
                        "size": "XG",
                        "stock": 100,
                        "sku": 51927781,
                        "status": true
                    }
                ]
            },
            {
                "color": "Amarillo",
                "sizes": [
                    {
                        "size": "CH",
                        "stock": 100,
                        "sku": 51927781,
                        "status": true
                    },
                    {
                        "size": "M",
                        "stock": 100,
                        "sku": 51927781,
                        "status": true
                    },
                    {
                        "size": "G",
                        "stock": 100,
                        "sku": 51927781,
                        "status": true
                    },
                    {
                        "size": "XG",
                        "stock": 100,
                        "sku": 51927781,
                        "status": true
                    }
                ]
            },
            {
                "color": "Verde",
                "sizes": [
                    {
                        "size": "CH",
                        "stock": 100,
                        "sku": 51927781,
                        "status": true
                    },
                    {
                        "size": "M",
                        "stock": 100,
                        "sku": 51927781,
                        "status": true
                    },
                    {
                        "size": "G",
                        "stock": 100,
                        "sku": 51927781,
                        "status": true
                    },
                    {
                        "size": "XG",
                        "stock": 100,
                        "sku": 51927781,
                        "status": true
                    }
                ]
            },
            {
                "color": "Naranja",
                "sizes": [
                    {
                        "size": "CH",
                        "stock": 100,
                        "sku": 51927781,
                        "status": true
                    },
                    {
                        "size": "M",
                        "stock": 100,
                        "sku": 51927781,
                        "status": true
                    },
                    {
                        "size": "G",
                        "stock": 100,
                        "sku": 51927781,
                        "status": true
                    },
                    {
                        "size": "XG",
                        "stock": 100,
                        "sku": 51927781,
                        "status": true
                    }
                ]
            },
            {
                "color": "Naranja Medio",
                "sizes": [
                    {
                        "size": "CH",
                        "stock": 100,
                        "sku": 51927781,
                        "status": true
                    },
                    {
                        "size": "M",
                        "stock": 100,
                        "sku": 51927781,
                        "status": true
                    },
                    {
                        "size": "G",
                        "stock": 100,
                        "sku": 51927781,
                        "status": true
                    },
                    {
                        "size": "XG",
                        "stock": 100,
                        "sku": 51927781,
                        "status": true
                    }
                ]
            },
            {
                "color": "Azul Medio",
                "sizes": [
                    {
                        "size": "CH",
                        "stock": 100,
                        "sku": 51927781,
                        "status": true
                    },
                    {
                        "size": "M",
                        "stock": 100,
                        "sku": 51927781,
                        "status": true
                    },
                    {
                        "size": "G",
                        "stock": 100,
                        "sku": 51927781,
                        "status": true
                    },
                    {
                        "size": "XG",
                        "stock": 100,
                        "sku": 51927781,
                        "status": true
                    }
                ]
            },
            {
                "color": "Morado Claro",
                "sizes": [
                    {
                        "size": "CH",
                        "stock": 100,
                        "sku": 51927781,
                        "status": true
                    },
                    {
                        "size": "M",
                        "stock": 100,
                        "sku": 51927781,
                        "status": true
                    },
                    {
                        "size": "G",
                        "stock": 100,
                        "sku": 51927781,
                        "status": true
                    },
                    {
                        "size": "XG",
                        "stock": 100,
                        "sku": 51927781,
                        "status": true
                    }
                ]
            },
            {
                "color": "Azul Claro",
                "sizes": [
                    {
                        "size": "CH",
                        "stock": 100,
                        "sku": 51927781,
                        "status": true
                    },
                    {
                        "size": "M",
                        "stock": 100,
                        "sku": 51927781,
                        "status": true
                    },
                    {
                        "size": "G",
                        "stock": 100,
                        "sku": 51927781,
                        "status": true
                    },
                    {
                        "size": "XG",
                        "stock": 100,
                        "sku": 51927781,
                        "status": true
                    }
                ]
            }
        ],
        "atributes": [
            {
                "title": "Promociones",
                "id": 53,
                "type": "promotion"
            },
            {
                "title": "Tiempo de entrega",
                "id": 54,
                "type": "delivery"
            },
            {
                "title": "Formas de pago",
                "id": 55,
                "type": "pay",
                "content":[
                    {
                        "id": 20,
                        "img": "https://staasobj-api.telmex.com/swift/v1/sears/landings/pago2.gif",
                        "text":"Tarjeta SEARS"
                    },
                    {
                        "id": 21,
                        "img": "https://staasobj-api.telmex.com/swift/v1/sears/landings/pago2.gif",
                        "text":"Pagos con tarjeta de crédito y débito"
                    },
                    {
                        "id": 22,
                        "img": "https://staasobj-api.telmex.com/swift/v1/sears/landings/pago2.gif",
                        "text":"American express"
                    },
                    {
                        "id": 23,
                        "img": "https://staasobj-api.telmex.com/swift/v1/sears/landings/pago2.gif",
                        "text":"Paypal (Tarjeta de crédito y débito )"
                    },
                    {
                        "id": 24,
                        "img": "https://staasobj-api.telmex.com/swift/v1/sears/landings/pago2.gif",
                        "text":"Depósito y transferencia bancaria"
                    }
                ]
            },
            {
                "title": "Políticas de garantía y devolución",
                "id": 56,
                "type": "legacy"
            }
        ],
        "description": "Polo Club, trae para ti esta playera básica tipo polo color blanco, cuenta con el detalle de logo bordado en el pecho ideal, para cualquier ocasión.",
        "description_short": null,
        "big_ticket": null,
        "shipping_cost": 75,
        "relevance": null,
        "last_update": "2019-10-02 16:30:22",
        "status": true,
        "ean": "",
        "categories": [
            [
                {
                    "id": 6808,
                    "name": "Playeras Polo",
                    "seo": "playeras-polo",
                    "path_length": 0
                },
                {
                    "id": 6806,
                    "name": "Universitarios",
                    "seo": "universitarios",
                    "path_length": 1
                },
                {
                    "id": 5915,
                    "name": "Él",
                    "seo": "el",
                    "path_length": 2
                }
            ]
        ],
        "corners": [],
        "store": {},
        "seo": null
    },
    "code": 200,
    "msg": "TODO OK"
}