{
    "success": true,
    "data": {
        "id": 180731,
        "type_product": {
            "id": 2,
            "name": "Click y recoge",
            "content": [
                {
                    "text":"Recoge en tienda"
                }
            ]
        },
        "images": [
            {
                "id": 12341,
                "link": "https://resources.sears.com.mx/medios-plazavip/fotos/productos_sears1/original/2952377.jpg",
                "order": 1
            },
            {
                "id": 12342,
                "link": "https://resources.sears.com.mx/medios-plazavip/fotos/productos_sears1/original/2952381.jpg",
                "order": 2
            },
            {
                "id": 12343,
                "link": "https://resources.sears.com.mx/medios-plazavip/fotos/productos_sears1/original/2952380.jpg",
                "order": 3
            },
            {
                "id": 12344,
                "link": "https://resources.sears.com.mx/medios-plazavip/fotos/productos_sears1/original/2952379.jpg",
                "order": 4
            },
            {
                "id": 12345,
                "link": "https://resources.sears.com.mx/medios-plazavip/fotos/productos_sears1/original/2952378.jpg",
                "order": 5
            }
        ],
        "videos": [],
        "search_factor": 0,
        "title": "Sudadera para Caballero de Flanel con Capucha y Bolso Delantero Pierre Cardin",
        "attributes": {
            "marca": "ISOTONER"
        },
        "sku": "7301758",
        "price": 355,
        "sale_price": 419,
        "discount": 0,
        "stock": 0,
        "colors": [
            {
                "color": "gris oxford",
                "sizes": [
                    {
                        "size": "CH",
                        "stock": 100,
                        "sku": 51927781,
                        "status": true
                    },
                    {
                        "size": "M",
                        "stock": 100,
                        "sku": 51927781,
                        "status": true
                    },
                    {
                        "size": "G",
                        "stock": 100,
                        "sku": 51927781,
                        "status": true
                    },
                    {
                        "size": "XG",
                        "stock": 100,
                        "sku": 51927781,
                        "status": true
                    }
                ]
            }
        ],
        "tabs": [
            {
                "title": "Promociones",
                "id": 53,
                "action": "promotion"
            },
            {
                "title": "Tiempo de entrega",
                "id": 54,
                "action": "delivery"
            },
            {
                "title": "Formas de pago",
                "id": 55,
                "action": "pay",
                "content":[
                    {
                        "id": 20,
                        "img": "https://staasobj-api.telmex.com/swift/v1/sears/landings/pago2.gif",
                        "text":"Tarjeta SEARS"
                    },
                    {
                        "id": 21,
                        "img": "https://staasobj-api.telmex.com/swift/v1/sears/landings/pago2.gif",
                        "text":"Pagos con tarjeta de crédito y débito"
                    },
                    {
                        "id": 22,
                        "img": "https://staasobj-api.telmex.com/swift/v1/sears/landings/pago2.gif",
                        "text":"American express"
                    },
                    {
                        "id": 23,
                        "img": "https://staasobj-api.telmex.com/swift/v1/sears/landings/pago2.gif",
                        "text":"Paypal (Tarjeta de crédito y débito )"
                    },
                    {
                        "id": 24,
                        "img": "https://staasobj-api.telmex.com/swift/v1/sears/landings/pago2.gif",
                        "text":"Depósito y transferencia bancaria"
                    }
                ]
            },
            {
                "title": "Políticas de garantía y devolución",
                "id": 56,
                "action": "legacy"
            }
        ],
        "description": "A donde sea que vayas, una sudadera cálida y cómoda puede ser necesaria de un instante para otro, por lo que una prenda como esta, de superficie suave e interior afelpado, es de suma importancia. Esta sudadera Isotoner es suave al tacto y perfecta para su uso tanto en interiores omo en exteriores.",
        "description_short": null,
        "big_ticket": null,
        "shipping_cost": 75,
        "relevance": null,
        "last_update": "2019-10-02 16:30:22",
        "status": true,
        "ean": "",
        "categories": [
            {
                "idCategoria": 0,
                "nombre": "Él",
                "idPadre": 0,
                "categoriasHijas": [
                    {
                        "id": 5915,
                        "name": "Él",
                        "seo": "Él",
                        "path_length": 1
                    },
                    {
                        "id": 16211,
                        "name": "Moda Casual",
                        "seo": "moda-casual",
                        "path_length": 2
                    },
                    {
                        "id": 5080,
                        "name": "Sudadera",
                        "seo": "sudadera",
                        "path_length": 3
                    }
                ]
            }
        ],
        "corners": [],
        "store": {},
        "seo": null
    },
    "code": 200,
    "msg": "TODO OK"
}