{
    "success": true,
    "data": {
        "title": "Mesa de Regalos",
        "action": "gift-table",
        "img": "https://wap-mesa-regalos.sears.com.mx/css/img/mesaDeRegalos/mR_home.png",
        "content": "¡Queremos compartir contigo la emoción de los momentos únicos de tu vida! y para hacerlo en grande SEARS tiene para ti la mejor opción en Mesa de Regalos. Disfruta de los beneficios desde el día de tu registro hasta el día del cierre. Contamos con los mejores planes para Boda, Despedidas de Soltera, Baby Shower, XV años, Ceremonias Infantiles, Cumpleaños, Graduaciones, Aniversarios y Nueva Casa.",
        "button": [
            {
                "name": "Continuar",
                "type": "button",
                "link": "https://wap-mesa-regalos.sears.com.mx/"
            }
        ]
    },
    "msg": "TODO OK",
    "code": 200
}