{
    "success": true,
    "data": {
        "id": 1,
        "title": "Preguntas Frecuentes",
        "action": "help2level",
        "content": [
            {
                "question": "¿Qué es una compra por Internet?",
                "answer": "Adquirir productos o servicios desde tu computadora cómoda, fácil y rápidamente con sólo hacer algunos clics, puedes encontrar fácil y rápidamente con sólo hacer algunos clics, puedes encontrar información más detallada sobre los artículos de tu interés y realizar comparativos sobre las características de estos."
            },
            {
                "question": "¿Qué debo hacer para comprar en la página de Sears?",
                "answer": "Para realizar compras en sears.com.mx, deberás registrarte ingresando a la opción: Crear nueva cuenta que aparece en la parte superior derecha de la página. Una vez realizado el registro podrás seleccionar todos los productos que desees adquirir y agregarlos a la bolsa de compras, al concluir tu selección, sólo debes dar clic en: Colocar mi pedido y seguir estos sencillos pasos: Envío. Elige la dirección de envío de tu pedido. Pago. Selecciona la forma de pago Revisar. Verifica toda la información del pedido Terminar. Concluye la compra"
            },
            {
                "question": "¿Para qué registrarme en la página?",
                "answer": "Realizar compras en nuestra tienda virtual sears.com.mx Obtener un servicio personalizado al realizar tus compras. Consultar tu saldo y pagar tu Tarjeta SEARS en línea. Recibir promociones especiales por correo electrónico. Administrar perfil de usuario: compras en línea, estatus de pedido, direcciones de envío y formas de pago. Registrar más de una dirección de facturación y envío."
            },
            {
                "question": "¿Cómo me registro como Cliente?",
                "answer": "Es muy sencillo, sólo da clic a la opción: Crear nueva cuenta que aparece en la parte superior derecha de la página. Llena la información correctamente y ya estás listo para comprar en línea. Si tienes alguna duda sobre el registro, llámanos desde el D.F. y área Metropolitana al: (01 55) 5345 1606 Desde el interior de la república (01 800) 836 82 46 de lunes a viernes de 9:00 a 20:00 horas, o envíanos un correo electrónico a: sears.internet@sears.com.mx, aquí te daremos toda la información necesaria y recibirás apoyo para agilizar tu registro. ¿Cuáles son las formas de pago? Puedes realizar tus compras con cualquiera de las siguientes formas de pago: Tarjeta de Crédito Sears: •Puntos Sears •Visa  •American Express •Depósito bancario •Tarjeta Plaza VIP Itaucard"
            },
            {
                "question": "¿Cuál es el nivel de seguridad para comprar?",
                "answer": "Todos los datos que teclees, incluyendo el número de tu tarjeta de crédito, nombre, domicilio, teléfono, etc, se encriptan bajo un método sofisticado utilizando tecnología de punta y se envían a nuestro servidor seguro. Estos datos no pueden ser leídos de ninguna manera durante su transmisión. Al recibir nosotros esos datos, los almacenamos encriptados en una base de datos alojada en una computadora inaccesible desde internet, preservando la seguridad de los mismos después de su transmisión."
            },
            {
                "question": "¿Puedo enviar a otras personas los productos que compre?",
                "answer": "Claro que sí puedes, sólo debes especificar en tu pedido la dirección de envío y datos de la persona a la que deseas enviar los productos que compraste. También puedes registrar más de una dirección de envío en tu cuenta personal si realizas compras a familiares o clientes que se encuentran en el interior de la república"
            },
            {
                "question": "¿Cómo realizan la entrega de productos?",
                "answer": "En general nuestros productos tienen un tiempo de entrega máximo de 10 días hábiles, siempre y cuando no se presente ningún inconveniente con la forma de pago y la disponibilidad de los artículos. Los productos denominados como big ticket (muebles, línea blanca, electrónica y aparatos de ejercicio) tienen un tiempo sujeto a el reaprovisionamiento de los proveedores indicando la fecha promesa de entrega en cada detalle del producto. En la zona metropolitana el envio no tiene costo alguno y la entrega se realiza por transporte Sears. Los envíos al interior de la República Mexicana se hacen por mensajería DHL con un cargo adicional (verificar costo de envío)."
            }
        ]
    },
    "msg": "TODO OK",
    "code": 200
}