{
    "success": true,
    "data": {
        "id": 4,
        "title": "Tarjetas de Crédito Bancarias Emitidas en México",
        "action": "help3level",
        "cards": [
            {
                "name": "Visa"
            },
            {
                "name": "Master Card"
            },
            {
                "name": "American Express"
            }
        ],
        "information": [
            {
                "title": "Al momento de hacer tu compra sistema te pedirá que ingreses la siguiente información:",
                "options": [
                    {
                        "name": "Nombre como aparece en la Tarjeta de Crédito."
                    },
                    {
                        "name": "Número de Tarjeta de Crédito."
                    },
                    {
                        "name": "Tipo de Tarjeta de Crédito.(Sears, Visa, Master Card o American Express)"
                    },
                    {
                        "name": "Fecha de Expiración. (No aplica para las tarjetas Sears). Los 3 dígitos (Visa y MasterCard) o 4 dígitos (American Express) de seguridad."
                    },
                    {
                        "name": "Informacion AVS (Nombre y Direccion a donde llega tu Estado de Cuenta)."
                    }
                ]
            }
        ],
        "observations": [
            {
                "title": "Observaciones",
                "content": "La compra no entra a ningún plan de meses sin intereses debido a los precios especiales exclusivos que manejamos en Internet. Por tu seguridad, las transacciones realizadas con tu tarjeta se validan tanto en línea al momento de realizar tu compra, así como consultando a tu banco despues de realizada esta. De igual manera, el titular de la tarjeta de crédito puede ser localizado vía telefonica para validar que aprueba la compra y un tercero no lo hizo en su nombre sin su consentimiento."
            }
        ],
        "subtitle": 
            {
                "name": "SafetyPay",
                "data": [
                    {
                        "questions": "¿Qué es SafetyPay?",
                        "answer": "Es el nuevo Medio de Pago Seguro para realizar compras por Internet, pagando a través de tu Banca en Línea. Beneficios SafetyPay: Sin revelar la información de tus cuentas. Sin registrarte o suscribirte. Sin cobro de comisiones al realizar tus compras. Sin riesgo de fraude, ya que la transacción queda entre tu Banco y tú."
                    },
                    {
                        "questions": "¿Cómo funciona?",
                        "answer": "Pagar con SafetyPay es Sencillo y Seguro: Elige el producto que deseas comprar en www.sears.com.mx. Selecciona SafetyPay como forma de pago y conserva el Número de Transacción y Monto a Pagar. Elige tu Banco* y serás direccionado a tu Banca En Línea, para confirmar ahí tu pago. ¡Listo! ya pagaste desde tu cuenta de débito (Nómina, Cheques o Ahorro), con toda la seguridad que te ofrece tu Banco. Tanto Sears como tú, reciben la notificación del pago de tu compra."
                    }
                ]
            }
    },
    "msg": "TODO OK",
    "code": 200
}