{
    "success": true,
    "data": {
        "id": 5,
        "title": "Depósito Bancario en México.",
        "action": "help3level",
        "options": [
            {
                "bank": "Banamex",
                "content": [
                    {
                        "li": "Nombre del Beneficiario: Sears Operadora Mexico, S.A. de C.V."
                    },
                    {
                        "li": "Número de Sucursal: 870."
                    },
                    {
                        "li": "Número de Cuenta: 568173."
                    },
                    {
                        "li": "Número de Cuenta CLABE (transferencias electrónicas): 002 180 08700568173 4 (Para uso exclusivo de Compras Por Internet. Ninguna cantidad depositada a esta cuenta será abonada a pago de Crédito Sears.)"
                    },
                    {
                        "li": "Número de Referencia: Su número de pedido."
                    },
                    {
                        "li": "Importe del depósito: importe total de su pedido."
                    }
                ]
            },
            {
                "bank": "BBVA Bancomer",
                "content": [
                    {
                        "li": "Nombre del Cliente: Sears Operadora Mexico, S.A. de C.V."
                    },
                    {
                        "li": "No de Cuenta/Contrato/convenio CIE: 0100710733."
                    },
                    {
                        "li": "Señalar que es un Depósito/Pago"
                    },
                    {
                        "li": "Si su pago es con cheque, debe expedirlo a nombre de Sears Operadora Mexico, S.A. de C.V."
                    },
                    {
                        "li": "Referencia (CIE / Depósito Referenciado): Número de su Pedido."
                    },
                    {
                        "li": "Número de Cuenta CLABE (Transferencias electrónicas): 012 180 00100710733 4 (Para uso exclusivo de Compras Por Internet. Ninguna cantidad depositada a esta cuenta será abonada a pago de Crédito Sears.)"
                    }
                ]
            },
            {
                "bank": "Santander",
                "text": "Llenar la ficha correspondiente, la cual será proporcionada en cualquier sucursal de Santander y conforme al instructivo que se detalla a continuación:",
                "content": [
                    {
                        "li": "Número de Cuenta: 65-50125112-4"
                    },
                    {
                        "li": "Nombre del Cliente: Sears Operadora Mexico, S.A. de C.V."
                    },
                    {
                        "li": "Nombre del Depositante o Pagador: anotar el nombre de quien realizó el pedido en la página de Sears."
                    },
                    {
                        "li": "Referencia: número de su Pedido."
                    },
                    {
                        "li": "Total del Depósito: Importe Total de su pedido."
                    }
                ]
            }
        ],
        "observation": "Importante: Las cuentas aquí mencionadas son para uso exclusivo de Compras por Internet. Ninguna cantidad depositada en estas cuentas será abonada a pago de Crédito Sears."
    },
    "msg": "TODO OK",
    "code": 200
}