{
    "success": true,
    "data": {
        "title": "Escríbenos",
        "action": "write-us",
        "text": "En caso de contar con algún otro comentario, duda o sugerencia puedes hacerla llegar vía electrónica en el siguiente formulario, seleccionando el área a la que va dirigida.",
        "data": [
            {
                "name": "Área que desea contactar:",
                "placeholder": "",
                "areas": [
                    {
                        "id": 1,
                        "name": "BOLSA DE TRABAJO"
                    },
                    {
                        "id": 2,
                        "name": "CRÉDITO"
                    },
                    {
                        "id": 3,
                        "name": "INTERNET"
                    },
                    {
                        "id": 4,
                        "name": "OPERACIONES"
                    },
                    {
                        "id": 5,
                        "name": "MESA DE REGALOS"
                    },
                    {
                        "id": 6,
                        "name": "SERVICIO TÉCNICO"
                    }
                ]
            },
            {
                "name": "Nombre(s)",
                "placeholder": "Ingresa tu nombre"
            },
            {
                "name": "Apellido Paterno",
                "placeholder": "Ingresa tu Apellido Paterno"
            },
            {
                "name": "Apellido Materno",
                "placeholder": "Ingresa tu Apellido Materno"
            },
            {
                "name": "Correo Electrónico",
                "placeholder": "Ingresa tu Correo Electrónico"
            },
            {
                "name": "Estado",
                "placeholder": "",
                "states": [
                    {
                        "id": "1",
                        "name": "Aguascalientes"
                    },
                    {
                        "id": "2",
                        "name": "Baja California"
                    },
                    {
                        "id": "3",
                        "name": "Baja California Sur"
                    },
                    {
                        "id": "4",
                        "name": "Campeche"
                    },
                    {
                        "id": "5",
                        "name": "Coahuila"
                    },
                    {
                        "id": "6",
                        "name": "Colima"
                    },
                    {
                        "id": "7",
                        "name": "Chiapas"
                    },
                    {
                        "id": "8",
                        "name": "Chihuahua"
                    },
                    {
                        "id": "9",
                        "name": "Distrito Federal"
                    },
                    {
                        "id": "10",
                        "name": "Durango"
                    },
                    {
                        "id": "11",
                        "name": "Guanajuato"
                    },
                    {
                        "id": "12",
                        "name": "Guerrero"
                    },
                    {
                        "id": "13",
                        "name": "Hidalgo"
                    },
                    {
                        "id": "14",
                        "name": "Jalisco"
                    },
                    {
                        "id": "15",
                        "name": "México"
                    },
                    {
                        "id": "16",
                        "name": "Michoacán"
                    },
                    {
                        "id": "17",
                        "name": "Morelos"
                    },
                    {
                        "id": "18",
                        "name": "Nayarit"
                    },
                    {
                        "id": "19",
                        "name": "Nuevo León"
                    },
                    {
                        "id": "20",
                        "name": "Oaxaca"
                    },
                    {
                        "id": "21",
                        "name": "Puebla"
                    },
                    {
                        "id": "22",
                        "name": "Querétaro"
                    },
                    {
                        "id": "23",
                        "name": "Quintana Roo"
                    },
                    {
                        "id": "24",
                        "name": "San Luis Potosí"
                    },
                    {
                        "id": "25",
                        "name": "Sinaloa"
                    },
                    {
                        "id": "26",
                        "name": "Sonora"
                    },
                    {
                        "id": "27",
                        "name": "Tabasco"
                    },
                    {
                        "id": "28",
                        "name": "Tamaulipas"
                    },
                    {
                        "id": "29",
                        "name": "Tlaxcala"
                    },
                    {
                        "id": "30",
                        "name": "Veracruz"
                    },
                    {
                        "id": "31",
                        "name": "Yucatán"
                    },
                    {
                        "id": "32",
                        "name": "Zacatecas"
                    }
                ]
            },
            {
                "name": "Código Postal",
                "placeholder": "Ingresa tu C.P."
            },
            {
                "name": "Comentario",
                "placeholder": "Ingresa un comentario."
            }
        ],
        "button": [
            {
                "name": "Enviar mensaje",
                "type": "button",
                "link": ""
            }
        ]
    },
    "code": 200,
    "msg": "TODO OK"
}