{
    "success": true,
    "data": {
        "id": 7,
        "title": "Ayuda",
        "content": [
            {
                "name": "Preguntas Frecuentes",
                "id": 1,
                "action": "faqs",
                "template": {
                    "title": "Preguntas Frecuentes",
                    "subtitle" : "" ,
                    "information": [
                        {
                            "subject": "¿Qué es una compra por Internet?",
                            "text": "Adquirir productos o servicios desde tu computadora cómoda, fácil y rápidamente con sólo hacer algunos clics, puedes encontrar fácil y rápidamente con sólo hacer algunos clics, puedes encontrar información más detallada sobre los artículos de tu interés y realizar comparativos sobre las características de estos."
                        },
                        {
                            "subject": "¿Qué debo hacer para comprar en la página de Sears?",
                            "text": "Para realizar compras en sears.com.mx, deberás registrarte ingresando a la opción: Crear nueva cuenta que aparece en la parte superior derecha de la página. Una vez realizado el registro podrás seleccionar todos los productos que desees adquirir y agregarlos a la bolsa de compras, al concluir tu selección, sólo debes dar clic en: Colocar mi pedido y seguir estos sencillos pasos: Envío. Elige la dirección de envío de tu pedido. Pago. Selecciona la forma de pago Revisar. Verifica toda la información del pedido Terminar. Concluye la compra"
                        },
                        {
                            "subject": "¿Para qué registrarme en la página?",
                            "text": "Realizar compras en nuestra tienda virtual sears.com.mx Obtener un servicio personalizado al realizar tus compras. Consultar tu saldo y pagar tu Tarjeta SEARS en línea. Recibir promociones especiales por correo electrónico. Administrar perfil de usuario: compras en línea, estatus de pedido, direcciones de envío y formas de pago. Registrar más de una dirección de facturación y envío."
                        },
                        {
                            "subject": "¿Cómo me registro como Cliente?",
                            "text": "Es muy sencillo, sólo da clic a la opción: Crear nueva cuenta que aparece en la parte superior derecha de la página. Llena la información correctamente y ya estás listo para comprar en línea. Si tienes alguna duda sobre el registro, llámanos desde el D.F. y área Metropolitana al: (01 55) 5345 1606 Desde el interior de la república (01 800) 836 82 46 de lunes a viernes de 9:00 a 20:00 horas, o envíanos un correo electrónico a: sears.internet@sears.com.mx, aquí te daremos toda la información necesaria y recibirás apoyo para agilizar tu registro. ¿Cuáles son las formas de pago? Puedes realizar tus compras con cualquiera de las siguientes formas de pago: Tarjeta de Crédito Sears: •Puntos Sears •Visa  •American Express •Depósito bancario •Tarjeta Plaza VIP Itaucard"
                        },
                        {
                            "subject": "¿Cuáles son las formas de pago?",
                            "text": "Puedes realizar tus compras con cualquiera de las siguientes formas de pago: Tarjeta de Crédito Sears, Puntos Sears,Visa, American Express, Depósito bancario, Tarjeta Plaza VIP Itaucard"
                        },
                        {
                            "subject": "¿Cuál es el nivel de seguridad para comprar?",
                            "text": "Todos los datos que teclees, incluyendo el número de tu tarjeta de crédito, nombre, domicilio, teléfono, etc, se encriptan bajo un método sofisticado utilizando tecnología de punta y se envían a nuestro servidor seguro. Estos datos no pueden ser leídos de ninguna manera durante su transmisión. Al recibir nosotros esos datos, los almacenamos encriptados en una base de datos alojada en una computadora inaccesible desde internet, preservando la seguridad de los mismos después de su transmisión."
                        },
                        {
                            "subject": "¿Puedo enviar a otras personas los productos que compre?",
                            "text": "Claro que sí puedes, sólo debes especificar en tu pedido la dirección de envío y datos de la persona a la que deseas enviar los productos que compraste. También puedes registrar más de una dirección de envío en tu cuenta personal si realizas compras a familiares o clientes que se encuentran en el interior de la república"
                        },
                        {
                            "subject": "¿Cómo realizan la entrega de productos?",
                            "text": "En general nuestros productos tienen un tiempo de entrega máximo de 10 días hábiles, siempre y cuando no se presente ningún inconveniente con la forma de pago y la disponibilidad de los artículos. Los productos denominados como big ticket (muebles, línea blanca, electrónica y aparatos de ejercicio) tienen un tiempo sujeto a el reaprovisionamiento de los proveedores indicando la fecha promesa de entrega en cada detalle del producto. En la zona metropolitana el envio no tiene costo alguno y la entrega se realiza por transporte Sears. Los envíos al interior de la República Mexicana se hacen por mensajería DHL con un cargo adicional (verificar costo de envío)."
                        }
                    ]
                }
            },
            {
                "name": "Formas de Pago",
                "id": 2,
                "action": "pay",
                "template": {
                    "title": "Formas de Pago",
                    "subtitle": "En tus compras por Internet aceptamos las siguientes formas de pago. Puedes consultar en cada caso las observaciones para cada forma de pago.",
                    "information": [
                        {
                            "id": 1,
                            "name": "Tarjeta de Crédito Sears y Puntos Sears",
                            "action": "payment_forms",
                            "description": [
                                {
                                    "subject": "",
                                    "paragraphs":[
                                        {
                                            "text": "El sistema te pedirá ingresar tu número de Tarjeta Sears, así como los datos a donde llega tu estado de cuenta mensualmente."
                                        },
                                        {
                                            "text": "Observaciones"
                                        },
                                        {
                                            "text": "• La compra entra directo a tu Cuenta Revolvente. Solo cuando existan promociones con planes de pago a mensualidades sin intereses podrás elegir tu plan de pago. ¡Mantente al pendiente de nuestraspromociones!."
                                        },
                                        {
                                            "text": "• A partir del 29 de mayo de 2014 puedes solicitar tu NIP en la tienda más cercana a tu domicilio lo que te brindará Seguridad en tus compras a través de Sears Internet además el envío de tus mercancias sera más rápido."
                                        },
                                        {
                                            "text": "• Si no cuentas con tu NIP y por seguridad de la cuenta, el titular de la tarjeta de crédito será contactado vía telefonica para validar que aprueba la compra y así evitar que un tercero no lo haya realizado sin su consentimiento."
                                        },
                                        {
                                            "text": "• En el caso de puntos, puedes consultar la siguiente dirección para conocer más sobre su utilización, valor y obtención."
                                        },
                                        {
                                            "text": "• Si paga con tarjeta Sears sólo se podran emitir facturas al nombre del titular de la cuenta. Por política de crédito Sears no se emiten facturas a nombre de empresas. Crédito Sears no emite tarjetas empresariales."
                                        }
                                    ]
                                }
                            ]
                        },
                        {
                            "id": 2,
                            "name": "Monedero Sears.",
                            "action": "payment_forms",
                            "description": [
                                {
                                    "subject": "",
                                    "paragraphs":[
                                        {
                                            "text": "Podrás utilizar el monedero obtenido en tiendas en los casos en que , debido a alguna venta especial o promoción, se te abone un porcentaje de tu compra en este medio."
                                        },
                                        {
                                            "text": "Deberás proporcionar el número de monedero que aparece en la parte inferior de tu monedero."
                                        }
                                    ]
                                }
                                
                            ]
                        },
                        {
                            "id": 3,
                            "name": "Paypal",
                            "action": "payment_forms",
                            "description": [
                                {
                                    "subject": "",
                                    "paragraphs":[
                                        {
                                            "text": "PayPal es un servicio que le permite pagar, enviar dinero y aceptar pagos sin revelar sus detalles financieros, ya que la información de su tarjeta de crédito se almacena de manera segura en la cuenta PayPal."
                                        },
                                        {
                                            "text": "Realice transacciones con la máxima seguridad y protección"
                                        },
                                        {
                                            "text": "PayPal utiliza la más reciente tecnología de cifrado de datos y sistema a prueba de fraudes para mantener su información segura, reduciendo así el riesgo de fraudes y robo de identidad en línea."
                                        },
                                        {
                                            "text": "Usted elige cómo pagar"
                                        },
                                        {
                                            "text": "Registre su tarjeta de débito o crédito en su cuenta PayPal. Podrá pagar de manera fácil si selecciona PayPal en el pago, inicia sesión en su cuenta PayPal y confirma su pago. Nosotros concluimos el proceso por usted, sin compartir sus detalles financieros con los comercios ni vendedores."
                                        },
                                        {
                                            "text": "Es fácil y no tiene costo"
                                        },
                                        {
                                            "text": "Simplemente seleccione PayPal cuando elija la opción de pago en este sitio, lo que le permitirá abrir rápidamente una cuenta PayPal y asociar su forma de pago para concluir la compra. Podrá utilizar su cuenta PayPal para comprar de manera segura a millones de comercios y vendedores de todo el mundo, dondequiera que vea el logotipo de PayPal. Cada día, 100 millones de personas utilizan PayPal en 193 mercados y con 26 divisas distintas."
                                        }
                                    ]
                                }
                            ]
                        },
                        {
                            "id": 4,
                            "name": "Tarjetas de Crédito Bancarias Emitidas en México.",
                            "action": "payment_forms",
                            "description": [
                                {
                                    "subject": "",
                                    "paragraphs":[
                                        {
                                            "text": "• Visa"
                                        },
                                        {
                                            "text": "• Master Card"
                                        },
                                        {
                                            "text": "• American Express"
                                        },
                                        {
                                            "text": "Al momento de hacer tu compra el sistema te pedirá que ingreses la siguiente información:"
                                        },
                                        {
                                            "text": "• Nombre como aparece en la Tarjeta de Crédito."
                                        },
                                        {
                                            "text": "• Número de Tarjeta de Crédito."
                                        },
                                        {
                                            "text": "• Tipo de Tarjeta de Crédito.(Sears, Visa, Master Card o American Express)"
                                        },
                                        {
                                            "text": "• Fecha de Expiración. (No aplica para las tarjetas Sears). Los 3 dígitos (Visa y MasterCard) o 4 dígitos (American Express) de seguridad."
                                        },
                                        {
                                            "text": "• Informacion AVS (Nombre y Direccion a donde llega tu Estado de Cuenta)."
                                        },
                                        {
                                            "text": "Observaciones"
                                        },
                                        {
                                            "text": "• La compra no entra a ningún plan de meses sin intereses debido a los precios especiales exclusivos que manejamos en Internet."
                                        },
                                        {
                                            "text": "• Por tu seguridad, las transacciones realizadas con tu tarjeta se validan tanto en línea al momento de realizar tu compra, así como consultando a tu banco despues de realizada esta. De igual manera, el titular de la tarjeta de crédito puede ser localizado vía telefonica para validar que aprueba la compra y un tercero no lo hizo en su nombre sin su consentimiento."
                                        }
                                    ]
                                }
                                
                            ]
                        },
                        {
                            "id": 5,
                            "name": "SafetyPay",
                            "action": "payment_forms",
                            "description": [
                                {
                                    "subject": "",
                                    "paragraphs":[
                                        {
                                            "text": "¿Qué es SafetyPay?"
                                        },
                                        {
                                            "text": "Es el nuevo Medio de Pago Seguro para realizar compras por Internet, pagando a través de tu Banca en Línea. Beneficios SafetyPay: Sin revelar la información de tus cuentas. Sin registrarte o suscribirte. Sin cobro de comisiones al realizar tus compras. Sin riesgo de fraude, ya que la transacción queda entre tu Banco y tú."
                                        },
                                        {
                                            "text": "Beneficios SafetyPay"
                                        },
                                        {
                                            "text": "• Sin revelar la información de tus cuentas. • Sin registrarte o suscribirte. • Sin cobro de comisiones al realizar tus compras. • Sin riesgo de fraude, ya que la transacción queda entre tu Banco y tú."
                                        },
                                        {
                                            "text": "¿Cómo funciona?"
                                        },
                                        {
                                            "text": "Pagar con SafetyPay es Sencillo y Seguro: 1. Elige el producto que deseas comprar en www.sears.com.mx. 2. Selecciona SafetyPay como forma de pago y conserva el Número de Transacción y Monto a Pagar. 3. Elige tu Banco* y serás direccionado a tu Banca En Línea, para confirmar ahí tu pago. ¡Listo! ya pagaste desde tu cuenta de débito (Nómina, Cheques o Ahorro), con toda la seguridad que te ofrece tu Banco. Tanto Sears como tú, reciben la notificación del pago de tu compra."
                                        },
                                        {
                                            "text": "Pasos dependiendo del Banco que hayas elegido:"
                                        },
                                        {
                                            "text": "BBVA Bancomer o Scotiabank:"
                                        },
                                        {
                                            "text": "• Ingresa tus claves habituales."
                                        },
                                        {
                                            "text": "• Selecciona la cuenta de pago"
                                        },
                                        {
                                            "text": "• Verifica el Monto a Pagar."
                                        },
                                        {
                                            "text": "• Confirma tu Pago."
                                        },
                                        {
                                            "text": "Santander:"
                                        },
                                        {
                                            "text": "• Ingresa tus claves habituales."
                                        },
                                        {
                                            "text": "• Selecciona la pestaña ''Pagos y Compras'' y dentro de ella abre la opción ''Servicios''."
                                        },
                                        {
                                            "text": "• Elige la Cuenta de pago y da click sobre el cuadro con el logo de SafetyPay."
                                        },
                                        {
                                            "text": "• Captura tu Número de transacción en el campo ''Referencia'' e ingresa el Monto de tu compra."
                                        },
                                        {
                                            "text": "• Confirma tu Pago. Más información sobre SAFETYPAY. Si deseas conocer más visítanos en www.safetypay.com.mx , solo haz click en el siguiente botón o llámanos al: (55) 55.36.77.06"
                                        },
                                        {
                                            "text": "Importante: Las cuentas aquí mencionadas son para uso exclusivo de Compras por Internet. Ninguna cantidad depositada en estas cuentas será abonada a pago de Crédito Sears."
                                        }
                                    ]
                                }
                                
                            ]
                        },
                        {
                            "id": 6,
                            "name": "Depósito Bancario/Transferencia Electrónica en México.",
                            "action": "payment_forms",
                            "description": [
                                {
                                    "subject": "",
                                    "paragraphs":[
                                        {
                                            "text": "Banamex"
                                        },
                                        {
                                            "text": "Nombre del Beneficiario: Sears Operadora Mexico, S.A. de C.V."
                                        },
                                        {
                                            "text": "Número de Sucursal: 870."
                                        },
                                        {
                                            "text": "Número de Cuenta: 568173."
                                        },
                                        {
                                            "text": "Número de Cuenta CLABE (transferencias electrónicas): 002 180 08700568173 4 (Para uso exclusivo de Compras Por Internet. Ninguna cantidad depositada a esta cuenta será abonada a pago de Crédito Sears.)"
                                        },
                                        {
                                            "text": "Número de Referencia: Su número de pedido."
                                        },
                                        {
                                            "text": "Importe del depósito: importe total de su pedido."
                                        },
                                        {
                                            "text": "BBVA Bancomer"
                                        },
                                        {
                                            "text": "Nombre del Cliente: Sears Operadora Mexico, S.A. de C.V."
                                        },
                                        {
                                            "text": "No de Cuenta/Contrato/convenio CIE: 0100710733."
                                        },
                                        {
                                            "text": "Señalar que es un Depósito/Pago"
                                        },
                                        {
                                            "text": "Si su pago es con cheque, debe expedirlo a nombre de Sears Operadora Mexico, S.A. de C.V."
                                        },
                                        {
                                            "text": "Referencia (CIE / Depósito Referenciado): Número de su Pedido."
                                        },
                                        {
                                            "text": "Número de Cuenta CLABE (Transferencias electrónicas): 012 180 00100710733 4 (Para uso exclusivo de Compras Por Internet. Ninguna cantidad depositada a esta cuenta será abonada a pago de Crédito Sears.)"
                                        },
                                        {
                                            "text": "Santander"
                                        },
                                        {
                                            "text": "Llenar la ficha correspondiente, la cual será proporcionada en cualquier sucursal de Santander y conforme al instructivo que se detalla a continuación:"
                                        },
                                        {
                                            "text": "Número de Cuenta: 65-50125112-4"
                                        },
                                        {
                                            "text": "Nombre del Cliente: Sears Operadora Mexico, S.A. de C.V."
                                        },
                                        {
                                            "text": "Nombre del Depositante o Pagador: anotar el nombre de quien realizó el pedido en la página de Sears."
                                        },
                                        {
                                            "text": "Referencia: número de su Pedido."
                                        },
                                        {
                                            "text": "Total del Depósito: Importe Total de su pedido."
                                        }
                                    ]
                                }
                            ]
                        },
                        {
                            "id": 7,
                            "name": "Formas de Pago Desde El Extranjero / Foreign Payment Forms",
                            "action": "payment_forms",
                            "description": [
                                {
                                    "subject": "¿Qué información vamos a recabar?",
                                    "paragraphs":[
                                        {
                                            "text": "Depósito Bancario EE.UU/ USA Wire Deposit."
                                        },
                                        {
                                            "text": "Banco/Bank: JP Morgan Chase Manhatan Bank"
                                        },
                                        {
                                            "text": "Plaza: New York, NY USA"
                                        },
                                        {
                                            "text": "Aba: 021 000 021"
                                        },
                                        {
                                            "text": "Referencia/Reference: Banco Inbursa SA (México)"
                                        },
                                        {
                                            "text": "No. de cuenta/Account Number: 400 475 464"
                                        },
                                        {
                                            "text": "Moneda Extranjera/Currency: USD"
                                        },
                                        {
                                            "text": "Para Acreditar a la cuenta/ Beneficiary Account : 012 09001 006 7"
                                        },
                                        {
                                            "text": "Beneficiario/Beneficiary Name: Sears Operadora Mexico, SA de CV"
                                        }
                                    ]
                                }
                            ]
                        }
                    ]
                }
            },
            {
                "name": "Políticas Sears",
                "id": 3,
                "action": "legacy",
                "template": {
                    "title": "Políticas Sears",
                    "subtitle" : "",
                    "information": [
                        {
                            "name": "Términos y Condiciones",
                            "action": "",
                            "id": 1,
                            "description": [
                                {
                                    "subject": "Estado de Cuenta Sears",
                                    "paragraphs":[
                                        {
                                            "text": "Al aceptar éstos términos y condiciones usted está de acuerdo en que:"
                                        },
                                        {
                                            "text": "El Estado de Cuenta que Sears Operadora México S.A. de C.V emita mensualmente le sea puesto a su disposición en formato electrónico a través del portal de autogestión en Internet: www.sears.com.mx y/o que le sea enviado a la dirección de correo electrónico que ha registrado."
                                        },
                                        {
                                            "text": "Sears le notificará cuando su Estado de Cuenta se encuentre disponible para consulta y descarga, con al menos 10 días naturales previo a la fecha límite de pago del ciclo de facturación correspondiente, mediante el envío de un mensaje a la dirección de correo electrónico registrado y/o a través de un mensaje de texto (SMS/USSD)."
                                        },
                                        {
                                            "text": "El envío y puesta a disposición del estado de cuenta a través de medios electrónicos no tiene costo."
                                        },
                                        {
                                            "text": "Usted podrá cambiar o actualizar la dirección de correo electrónico registrada a través de Servicio al Cliente en Tiendas Sears ó bien llamando a nuestro Centro de Atención a Clientes Sears al 01-800-900-2123."
                                        },
                                        {
                                            "text": "Si la dirección de correo electrónico proporcionada es incorrecta o no válida o no ha sido confirmada, o los correos electrónicos que se le envíen sean devueltos o no son recibidos; Sears suspenderá el envío del Estado de Cuenta a la dirección de correo electrónico registrada hasta que la dirección de correo electrónico sea confirmada o una nueva dirección sea registrada; no obstante, su estado de cuenta estará disponible para consulta y descarga a través del portal de autogestión www.sears.com.mx dentro del plazo previamente señalado."
                                        },
                                        {
                                            "text": "Es responsabilidad de usted confirmar su dirección de correo electrónico y asegurarse que los correos que le envíe Sears no sean catalogados por su aplicación de correo electrónico como correo no deseado, SPAM, Junk o Bulk."
                                        },
                                        {
                                            "text": "Sears no será responsable en caso de que el correo electrónico mensual informando que su estado de cuenta está disponible no sea recibido por caso fortuito, fuerza mayor, fallas del sistema de cualquiera de las partes, interrupción en los sistemas de comunicación en línea, o cualquier otra causa fuera del control de Sears. En estos casos usted podrá solicitar su saldo marcando al al 01-800-900-2123., en cualquier área de Servicio en Cliente en Tienda Sears o accediendo directamente al portal de autogestión www.sears.com.mx. El hecho de no recibir el correo electrónico o no acceder al portal de autogestión www.sears.com.mx no le exime de su obligación de pago. Evite que su cuenta presente atraso y pague a tiempo."
                                        },
                                        {
                                            "text": "En caso de requerirlo, usted podrá acudir a cualquier área de Servicio en Cliente en Tienda Sears y solicitar sin costo la impresión de su Estado de Cuenta."
                                        }
                                    ]
                                }
                            ]
                        },
                        {
                            "name": "Aviso de privacidad clientes",
                            "action": "",
                            "id": 2,
                            "description": [
                                {
                                    "subject": "¿Quién dará tratamiento a sus datos personales?",
                                    "paragraphs":[
                                        {
                                            "text":"Los datos personales proporcionados por usted serán utilizados por Sears Operadora México S.A. de C.V., (SEARS) con domicilio en Lago Zúrich No. 245, Edificio Presa Falcón piso 7, Colonia Granada Ampliación, Delegación Miguel Hidalgo, México Ciudad de México, C.P. 11529."
                                        }
                                    ]
                                },
                                {
                                    "subject": "¿Qué información vamos a recabar?",
                                    "paragraphs":[
                                        {
                                            "text":"SEARS para cumplir con las finalidades señaladas en el presente Aviso tratará datos personales de identificación, datos personales de contacto y datos personales patrimoniales y/o financieros. Le informamos que para efectos de lo señalado en el presente aviso de privacidad SEARS no tratará datos personales sensibles."                  
   
                                        },
                                        {
                                            "text":"Asimismo, le informamos que para efectos de lo señalado en el presente Aviso de Privacidad SEARS dará tratamiento a datos personales de terceros en calidad de referencias personales, por lo que al proporcionar los datos personales de dichos terceros para que SEARS les contacte por medios físicos y/o electrónicos usted reconoce haber recabado el consentimiento requerido en términos de la normatividad aplicable."
                                        }
                                    ]
                                },
                                {
                                    "subject": "¿Para qué fines usamos su información?",
                                    "paragraphs":[
                                        {
                                            "text":"SEARS tratará sus datos personales para las siguientes finalidades primarias y necesarias:"
  
                                        },
                                        {
                                            "text":"• Creación y gestión de su cuenta de usuario;"
                                        },
                                        {
                                            "text": "• Identificarle y contactarlo para dar seguimiento a la entrega de los productos adquiridos;"
                                        },
                                        {
                                            "text": "• Atender y resolver sus dudas relacionadas con la adquisición de nuestros productos y/o servicios;"
                                        },
                                        {
                                            "text": "• Facilitar la localización, tramitación, suministro, distribución y entrega de los productos solicitados por usted;"
                                        },
                                        {
                                            "text": "• Para dar cumplimiento a lo dispuesto por la Ley Federal para la Prevención e Identificación de Operaciones con Recursos de Procedencia Ilícita;"
                                        },
                                        {
                                            "text": "• Aclaraciones bancarias;"
                                        },
                                        {
                                            "text": "• Realizar consultas, investigaciones y revisiones en relación a quejas o reclamaciones;"
                                        },
                                        {
                                            "text": "• Dar cumplimiento a los requerimientos de autoridades competentes en los casos legalmente previstos;"
                                        },
                                        {
                                            "text": "• Para las gestiones de facturación relacionadas con los productos adquiridos;"
                                        },
                                        {
                                            "text": "• Llevar un histórico de sus compras;"
                                        },
                                        {
                                            "text": "• Otorgamiento de créditos"
                                        },
                                        {
                                            "text": "• Monitorear su comportamiento crediticio;"
                                        },
                                        {
                                            "text": "• Actividades de cobranza, incluyendo el envío de comunicaciones a través de correos electrónicos, llamadas telefónicas, servicios de mensajería instantánea, mensajes cortos y demás medios de comunicación físicos y/o electrónicos;"
                                        },
                                        {
                                            "text": "• Informarle sobre cambios o nuevos productos o servicios que estén relacionados con los productos adquiridos por usted;"
                            
                                        },
                                        {
                                            "text": "• Activación, cancelación y análisis del uso de su(s) tarjeta(s);"
                                        },
                                        {
                                            "text": "• Acumulación de puntos a través de monederos electrónicos o similares;"
                                        },
                                        {
                                            "text": "• Para alimentar la base de datos del buró de crédito;"
                                        },
                                        {
                                            "text": "• En su caso, para integrar una lista sobre los regalos de su preferencia y hacerlos llegar a su domicilio y/o canjearlos por productos en alguna de nuestras sucursales;"
                       
                                        },
                                        {
                                            "text": "• En el supuesto de que el producto que usted adquiera cuente con una garantía vigente, para brindarle el servicio de asistencia técnica y/o reparación requeridos;"
                           
                                        },
                                        {
                                            "text": "• En el supuesto de que usted cumpla con los requisitos establecidos por SEARS para darle de alta como cliente preferido y enviarle comunicaciones electrónicas personalizadas de acuerdo a sus intereses."
                                        }
                                    ]
                                },
                                {
                                    "subject": "¿Qué otros usos podemos darle a su información?",
                                    "paragraphs":[
                                        {
                                            "text":"De manera adicional, si usted no se opone, SEARS podrá mantener su información personal para las siguientes finalidades que no son necesarias para el servicio que nos solicite, pero que nos permiten y facilitan brindarle una mejor atención:"
                                        },
                                        {
                                            "text": "• Para posibles contactos posteriores."
                                        },
                                        {
                                            "text": "• Informarle del lanzamiento o cambios de nuevos productos, bienes, servicios, promociones y/u ofertas de acuerdo a sus intereses, incluyendo el envío de comunicaciones a través de correos electrónicos, llamadas telefónicas, mensajes cortos y demás medios de comunicación físicos y/o electrónicos; "
                         
                                        },
                                        {
                                            "text": "• Para enviarle publicidad y comunicaciones con fines de mercadotecnia, tele-marketing entre otras."
                      
                                        },
                                        {
                                            "text": "En caso de que no desee que sus datos personales sean tratados para alguna o todas las finalidades adicionales, desde este momento usted nos puede comunicar lo anterior al correo arco@sears.com.mx"
                      
                                        },
                                        {
                                            "text": "La negativa para el uso de sus datos personales para fines adicionales, no podrá ser un motivo para negarle los servicios solicitados o dar por terminada la relación establecida con nosotros."
                          
                                        }
                                    ]
                                },
                                {
                                    "subject": "¿A qué terceros podemos transferir su información?",
                                    "paragraphs":[
                                        {
                                            "text":"SEARS podrá transferir, sin requerir de su consentimiento, los datos personales necesarios a autoridades competentes en los casos legalmente previstos, así como a empresas subsidiarias y filiales de SEARS, las cuales operan bajo políticas de privacidad que cumplen con las disposiciones aplicables correspondientes para dar cumplimiento a las finalidades señaladas en el presente aviso. En especial, SEARS, en caso de que las operaciones que usted realice por la compra y/o venta de nuestros productos sea igual o superior al equivalente a ochocientas cinco veces el salario mínimo vigente en el Distrito Federal, SEARS, podrá entregar determinada información de usted a las autoridades fiscales competentes con la finalidad de dar cumplimiento a lo dispuesto por la Ley Federal para la Prevención e Identificación de Operaciones con Recursos de Procedencia Ilícita."
                                        },
                                        {
                                            "text": "Asimismo, le informamos que en el supuesto de que usted incumpla con las obligaciones de pago contraídas, sus datos personales podrán ser transferidos a las Sociedades de Información Crediticia con las que tengamos celebrados acuerdos de comunicación de datos sin requerir su consentimiento por ser una obligación legal en términos de la Ley respectiva."
                 
                                        },
                                        {
                                            "text": "En caso de que no desee que sus datos personales sean transferidos para alguna o todas las finalidades señaladas, desde este momento usted nos puede comunicar lo anterior al correo arco@sears.com.mx"
                        
                                        }
                                    ]
                                },
                                {
                                    "subject": "¿Cómo puede ejercer sus derechos ARCO y/o revocar su consentimiento?",
                                    "paragraphs":[
                                        {
                                            "text":"Usted o su representante legal podrá ejercer cualquiera de los derechos de acceso, rectificación, cancelación u oposición (en lo sucesivo “derechos Arco”), así como revocar su consentimiento para el tratamiento de sus datos personales enviando un correo electrónico al Departamento de Protección de Datos de SEARS a la dirección electrónica arco@sears.com.mx. Su petición deberá ser realizada a través del Formato de Solicitud de Derechos ARCO, el cual debe ser solicitado a la dirección de correo electrónico antes señalada. Para que el Departamento de Protección de Datos de SEARS pueda darle seguimiento a su solicitud, usted o su representante legal, deberá acreditar correctamente su identidad para lo que es necesario que complete todos los campos indicados en el Formato y lo acompañe con copia de alguna de las identificaciones oficiales vigentes que se señalan en el mismo. Para obtener mayor información sobre los procedimientos, requisitos y plazos para el ejercicio de sus Derechos ARCO y/o revocación del consentimiento contacte al Departamento de Protección de Datos de SEARS."
                                        }
                                       
                                    ]
                                },
                                {
                                    "subject": "¿Cómo puede limitar el uso y/o divulgación de sus datos?",
                                    "paragraphs":[
                                        {
                                            "text":"Usted podrá limitar el uso o divulgación de sus datos personales enviando su solicitud a la dirección arco@sears.com.mx. En caso de que su Solicitud sea procedente se le registrará en el listado de exclusión propio de SEARS. Para mayor información favor de contactar al Departamento de Protección de Datos de SEARS."
                                        }
                                    ]
                                },
                                {
                                    "subject": "Uso de cookies y web beacons",
                                    "paragraphs":[
                                        {
                                            "text":"SEARS utiliza varias tecnologías para mejorar la eficiencia de sus sitios web, incluyendo su experiencia cuando navega por dichos sitios. Entre estas tecnologías se incluye el uso de cookies de terceros. Las cookies son pequeñas cantidades de información que se almacenan en el navegador utilizado por cada usuario para que el servidor recuerde cierta información que posteriormente pueda utilizar. Esta información permite identificarle y guardar sus preferencias personales para brindarle una mejor experiencia de navegación. Le recordamos que usted puede deshabilitar o ajustar el uso de cookies siguiendo los procedimientos del navegador de internet que utiliza."
                                        }
                                    ]
                                },
                                {
                                    "subject": "¿Cómo le notificaremos de los cambios que efectuemos al presente Aviso de Privacidad?",
                                    "paragraphs":[
                                        {
                                            "text":"SEARS le notificará de cualquier cambio a su aviso de privacidad a través de nuestra página de internet http://www.sears.com.mx por lo cual le pedimos revise la misma de manera periódica."
                                        }
                                    ]
                                },
                                {
                                    "subject": "¿Cómo puede hacernos llegar sus dudas?",
                                    "paragraphs":[
                                        {
                                            "text":"Nuestro Departamento de Protección de Datos queda a sus órdenes para proporcionarle cualquier información adicional que requiera o, en su caso, para resolver cualquier duda que pudiera surgirle en materia de privacidad y protección de datos personales, para lo que podrá contactarnos a través del correo electrónico arco@sears.com.mx"
                                        }
                                    ]
                                },
                                {
                                    "subject": "INAI",
                                    "paragraphs":[
                                        {
                                            "text":"En caso de considerarlo necesario, le informamos que tiene el derecho de acudir ante el Instituto Nacional de Transparencia, Acceso a la Información y Protección de Datos Personales (INAI) para hacer efectivos sus derechos."
                                        }
                                    ]
                                }
                            ]
                        },
                        {
                            "name": "Aviso de privacidad prospectos",
                            "action": "",
                            "id": 3,
                            "description": [
                                {
                                    "subject": "¿Quién dará tratamiento a sus datos personales?",
                                    "paragraphs":[
                                        {
                                            "text":"Los datos personales proporcionados por usted serán utilizados por Sears Operadora México S.A. de C.V., (SEARS) con domicilio en Lago Zúrich No. 245, Edificio Presa Falcón piso 7, Colonia Granada Ampliación, Delegación Miguel Hidalgo, México Ciudad de México, C.P. 11529."
                                        }
                                    ]
                                },
                                {
                                    "subject": "¿Qué información vamos a recabar?",
                                    "paragraphs":[
                                        {
                                            "text":"SEARS para cumplir con las finalidades señaladas en el presente Aviso tratará datos personales de identificación, datos personales de contacto y datos personales patrimoniales y/o financieros. Le informamos que para efectos de lo señalado en el presente aviso de privacidad SEARS no tratará datos personales sensibles."                  
   
                                        },
                                        {
                                            "text":"Asimismo, le informamos que para efectos de lo señalado en el presente Aviso de Privacidad SEARS dará tratamiento a datos personales de terceros en calidad de referencias personales, por lo que al proporcionar los datos personales de dichos terceros para que SEARS les contacte por medios físicos y/o electrónicos usted reconoce haber recabado el consentimiento requerido en términos de la normatividad aplicable."
                                        }
                                    ]
                                },
                                {
                                    "subject": "¿Para qué fines usamos su información?",
                                    "paragraphs":[
                                        {
                                            "text":"SEARS tratará sus datos personales para las siguientes finalidades primarias y necesarias:"
                          
                                        },
                                        {
                                            "text":"• Analizar si usted cumple con los requisitos necesarios para el otorgamiento del crédito solicitado;"
                                        },
                                        {
                                            "text":"• Realizar consultas, investigaciones y revisiones en relación con su comportamiento crediticio en Sociedades de Información Crediticia;"
             
                                        },
                                        {
                                            "text": "• Solicitar referencias personales sobre usted;"
                                        },
                                        {
                                            "text": "• Informarle sobre el estatus de su solicitud;"
                                        },
                                        {
                                            "text": "• Otorgamiento de créditos;"
                                        },
                                        {
                                            "text":"• En caso de que usted no cumpla con los requisitos establecidos por SEARS para el otorgamiento del crédito solicitado, le informamos que sus datos serán cancelados después de dos años."
                           
                                        }
                                    ]
                                },
                                {
                                    "subject": "¿Qué otros usos podemos darle a su información?",
                                    "paragraphs":[
                                        {
                                            "text":"De manera adicional, si usted no se opone, SEARS podrá mantener su información personal para las siguientes finalidades que no son necesarias para el servicio que nos solicite, pero que nos permiten y facilitan brindarle una mejor atención:"
                          
                                        },
                                        {
                                            "text":"• Para posibles contactos posteriores."
                                        },
                                        {
                                            "text": "• Informarle del lanzamiento o cambios de nuevos productos, bienes, servicios, promociones y/u ofertas de acuerdo a sus intereses, incluyendo el envío de comunicaciones a través de correos electrónicos, llamadas telefónicas, mensajes cortos y demás medios de comunicación físicos y/o electrónicos;"
                    
                                        },
                                        {
                                            "text": "• Para enviarle publicidad y comunicaciones con fines de mercadotecnia, tele-marketing entre otras."
                      
                                        },
                                        {
                                            "text": "En caso de que no desee que sus datos personales sean tratados para alguna o todas las finalidades adicionales, desde este momento usted nos puede comunicar lo anterior al correo arco@sears.com.mx"
                     
                                        },
                                        {
                                            "text": "La negativa para el uso de sus datos personales para fines adicionales, no podrá ser un motivo para negarle los servicios solicitados o dar por terminada la relación establecida con nosotros."
                          
                                        }
                                    ]
                                },
                                {
                                    "subject": "¿A qué terceros podemos transferir su información?",
                                    "paragraphs":[
                                        {
                                            "text":"SEARS podrá transferir, sin requerir de su consentimiento, los datos personales necesarios a autoridades competentes en los casos legalmente previstos, así como a empresas subsidiarias y filiales de SEARS, las cuales operan bajo políticas de privacidad que cumplen con las disposiciones aplicables correspondientes para dar cumplimiento a las finalidades señaladas en el presente aviso."
                            
                                        },
                                        {
                                            "text":"En caso de que no desee que sus datos personales sean transferidos para alguna o todas las finalidades señaladas, desde este momento usted nos puede comunicar lo anterior al correo arco@sears.com.mx"
                                        }
                                    ]
                                },
                                {
                                    "subject": "¿Cómo puede ejercer sus derechos ARCO y/o revocar su consentimiento?",
                                    "paragraphs":[
                                        {
                                            "text":"Usted o su representante legal podrá ejercer cualquiera de los derechos de acceso, rectificación, cancelación u oposición (en lo sucesivo “derechos Arco”), así como revocar su consentimiento para el tratamiento de sus datos personales enviando un correo electrónico al Departamento de Protección de Datos de SEARS a la dirección electrónica arco@sears.com.mx. Su petición deberá ser realizada a través del Formato de Solicitud de Derechos ARCO, el cual debe ser solicitado a la dirección de correo electrónico antes señalada. Para que el Departamento de Protección de Datos de SEARS pueda darle seguimiento a su solicitud, usted o su representante legal, deberá acreditar correctamente su identidad para lo que es necesario que complete todos los campos indicados en el Formato y lo acompañe con copia de alguna de las identificaciones oficiales vigentes que se señalan en el mismo. Para obtener mayor información sobre los procedimientos, requisitos y plazos para el ejercicio de sus Derechos ARCO y/o revocación del consentimiento contacte al Departamento de Protección de Datos de SEARS."
                                        }
                                    ]
                                },
                                {
                                    "subject": "¿Cómo puede limitar el uso y/o divulgación de sus datos?",
                                    "paragraphs":[
                                        {
                                            "text":"Usted podrá limitar el uso o divulgación de sus datos personales enviando su solicitud a la dirección arco@sears.com.mx. En caso de que su Solicitud sea procedente se le registrará en el listado de exclusión propio de SEARS. Para mayor información favor de contactar al Departamento de Protección de Datos de SEARS."
                                        }
                                    ]
                                },
                                {
                                    "subject": "Uso de cookies y web beacons",
                                    "paragraphs":[
                                        {
                                            "text":"SEARS utiliza varias tecnologías para mejorar la eficiencia de sus sitios web, incluyendo su experiencia cuando navega por dichos sitios. Entre estas tecnologías se incluye el uso de cookies de terceros. Las cookies son pequeñas cantidades de información que se almacenan en el navegador utilizado por cada usuario para que el servidor recuerde cierta información que posteriormente pueda utilizar. Esta información permite identificarle y guardar sus preferencias personales para brindarle una mejor experiencia de navegación. Le recordamos que usted puede deshabilitar o ajustar el uso de cookies siguiendo los procedimientos del navegador de internet que utiliza."
                                        }
                                    ]
                                },
                                {
                                    "subject": "¿Cómo le notificaremos de los cambios que efectuemos al presente Aviso de Privacidad?",
                                    "paragraphs":[
                                        {
                                            "text":"SEARS le notificará de cualquier cambio a su aviso de privacidad a través de nuestra página de internet http://www.sears.com.mx por lo cual le pedimos revise la misma de manera periódica."
                                        }
                                    ]
                                },
                                {
                                    "subject": "¿Cómo puede hacernos llegar sus dudas?",
                                    "paragraphs":[
                                        {
                                            "text":"Nuestro Departamento de Protección de Datos queda a sus órdenes para proporcionarle cualquier información adicional que requiera o, en su caso, para resolver cualquier duda que pudiera surgirle en materia de privacidad y protección de datos personales, para lo que podrá contactarnos a través del correo electrónico arco@sears.com.mx"
                                        }
                                    ]
                                },
                                {
                                    "subject": "INAI",
                                    "paragraphs":[
                                        {
                                            "text":"En caso de considerarlo necesario, le informamos que tiene el derecho de acudir ante el Instituto Nacional de Transparencia, Acceso a la Información y Protección de Datos Personales (INAI) para hacer efectivos sus derechos."
                                        }
                                    ]
                                }
                               
                            ]
                        },
                        {
                            "name": "Política de cancelación",
                            "action": "",
                            "id": 4,
                            "description": [
                                {
                                    "subject": "",
                                    "paragraphs":[
                                            {
                                                "text": "Podrás efectuar la cancelación total o parcial de una compra hecha a través de la página sears.com.mx siempre y cuando no se te haya enviado la mercancía, para ello, deberás envíar un correo electrónico sears.internet@sears.com.mx o bien, comunicándote con nosotros vía telefónica al (01-55) 53 45 16 06 o del interior de la Republica al (01 800) 836 82 46."
                                            },
                                            {
                                                "text": "Si al momento de recibir tu aviso (por cualquier medio antes mencionado) la mercancía ya ha sido enviada, te pedimos rechazar la entrega en tu domicilio para que el servicio de mensajería nos la devuelva. Al recibir nosotros la mercancía de regreso, te haremos el reembolso en la misma forma de pago original exceptuando los gastos de envío."
                                            },
                                            {
                                                "text": "Sí tu forma de pago fue depósito bancario, te pedimos que al momento de solicitar la cancelación nos proporciones: CLABE Interbancaria, Banco y Nombre del titular de la cuenta; el reembolso se hará mediante transferencia electrónica por el importe del pedido dentro de los siguientes cinco días hábiles a la obtención de tus datos. No se harán reembolsos si no contamos con los datos antes mencionados. Si no tienes alguna cuenta bancaria, debes proporcionarnos el nombre al que se le expedirá un cheque y la tienda en la que deseas recogerlo (previa identificación oficial)."
                                            },
                                            {
                                                "text": "En caso de cancelaciones parciales, solo se reembolsará el precio de la mercancía y no los gastos de envío."
                                            },
                                            {
                                                "text": "Únicamente se reembolsarán los gastos de envío cuando el motivo de la cancelación sea imputable a Sears por no tener existencias y no poder surtir el pedido."
                                            },
                                            {
                                                "text": "Sears podrá cancelar un pedido hecho para ser pagado mediante depósito bancario si no realizas el depósito dentro de los 3 días naturales siguientes a tu solicitud de compra."
                                            }
                                    ]
                                }
                            ]
                        },
                        {
                            "name": "Política de devolución",
                            "action": "",
                            "id": 5,
                            "description": [
                                {
                                    "subject": "Nuestra política de devolución es muy sencilla. Podrás devolver cualquier artículo comprado en Sears Internet por las siguientes causas:",
                                    "paragraphs":[
                                        {
                                            "text":"• Si el artículo presenta defectos de fabricación."         
                                        },
                                        {
                                            "text": "• Si existe equivocación en el artículo enviado, conservando la envoltura original de celofán (emplaye) y sin presentar muestras de maltrato."
                                        },
                                        {
                                            "text": "En la recepción de mercancía errónea o dañada se aplicará el cambio físico de la misma solo si ésta fue reportada durante las primeras 72 horas posteriores a su entrega, a los siguientes teléfonos:"
                                        }
                                    ]
                                },
                                {
                                    "subject": "Atención a Clientes:",
                                    "paragraphs":[
                                        {
                                            "text": "Teléfono: D.F. y area Metropolitana (01 55) 53 45 16 06"
                                        },
                                        {
                                            "text": "Interior de la República (01 800) 836 82 46"
                                        },
                                        {
                                            "text": "Horario: Lunes a Viernes de 9:00 a 20:00 hrs, Sábado y Domingo de 11:00 a 20:00 hrs"
                                        },
                                        {
                                            "text": "La garantía a productos eléctricos y electrónicos será válida únicamente durante los 30 días naturales a la recepción de los mismos."
                                        }
                                    ]
                                },
                                {
                                    "subject": "No hay Cambios ni Devoluciones en los siguientes artículos o departamentos:",
                                    "paragraphs":[
                                        {
                                            "text": "• Joyería fina y de fantasía, Lencería y Cosetería, Ropa Interior para Caballero, Niño, Niña y Bebés, perfumería, cosméticos, tratamientos dermatológicos, telefonía celular, Relojería, Software, Consolas de Videojuegos, Accesorios y juegos."
                                        },
                                        {
                                            "text": "• En Computación, Tablets, iPods, Telefonía celular y fotografía la garantía es directamente con el proveedor."
                                        },
                                        {
                                            "text": "• Por disposición de PROFECO en colchones no se aceptan devoluciones ni cambios."
                                        }
                                    ]
                                },
                                {
                                    "subject": "Telefonía Celular",
                                    "paragraphs":[
                                        {
                                            "text": "La garantía y servicio en aparatos celulares adquiridos en Sears Internet se aplicará de forma directa con el proveedor Telcel, conforme a sus políticas, procedimientos y restricciones."
                                        },
                                        {
                                            "text": "Para esto deberás acudir al Centro de Servicio Telcel más cercano para la evaluación de tu equipo."
                                        }
                                    ]
                                },
                                {
                                    "subject": "Procedimiento para la devolución en una tienda Sears.",
                                    "paragraphs":[        
                                        {
                                            "text": "• Si realizas la devolución de la mercancía, deberás dirigirte al departamento de Servicio al cliente de la tienda Sears más cercana, presentando la mercancía, la factura origina ó Ticket de compra y la tarjeta de crédito en la cual se generó el cargo."
                                        },
                                        {
                                            "text": "• En caso de que se haya enviado otra mercancía por equivocación o que presente algún defecto de fabricación, se podrá realizar el cambio físico, si en la tienda Sears a la que acudiste se cuenta con la existencia."
                                        },
                                        {
                                            "text": "• Si la tienda Sears no cuenta con la existencia, podrás escoger otro artículo equivalente de tu preferencia, o en caso contrario, se realizará el reembolso a tu tarjeta de crédito."
                                        },
                                        {
                                            "text": "• Si se envió otra mercancía por equivocación o presenta algún defecto de fabricación, se realizará el reembolso total de la mercancía, más los gastos de envío."
                                        },
                                        {
                                            "text": "• Si únicamente deseas cancelar tu compra, se realizará el reembolso por el importe de la mercancía, sin incluir los gatos de envío."
                                        }
                                    ]
                                },
                                {
                                    "subject": "Procedimiento para devoluciones por servicio de mensajería",
                                    "paragraphs":[        
                                        {
                                            "text": "• Si en tu localidad no cuentas con ninguna tienda Sears, podrás enviar la mercancía, utilizando de preferencia, la misma compañía de mensajería que le entregó la mercancía, asegurando perfectamente el paquete el cual deberá contener la factura original, una nota aclaratoria que indique el motivo de la devolución, y si deseas la reposición del artículo o el reembolso de tu dinero."
                                        },
                                        {
                                            "text": "• Si se envía la mercancía por mensajería, deberás asegurarte de anotar correctamente el siguiente destinatario:"
                                        },
                                        {
                                            "text": "Ventas Internet Sears / Sears Operadora México, S.A. de C.V."
                                        },
                                        {
                                            "text": "Norte 45 Nº 1014 Colonia Industrial Vallejo"
                                        },
                                        {
                                            "text": "México D.F., C.P. 02300"
                                        },
                                        {
                                            "text": "• Al momento en que nos sea entregada la devolución, nos pondremos en contacto contigo para confirmar la reposición de la mercancía o el reembolso."
                                        },
                                        {
                                            "text": "• Si no has recibido la mercancía, podrás enviarnos un e-mail a: sears.internet@sears.com.mx ó comunicarte al teléfono:"
                                        },
                                        {
                                            "text": "Teléfono: D.F. y área Metropolitana (01 55) 53 45 16 06"
                                        },
                                        {
                                            "text": "Interior de la República (01 800) 836 82 46"
                                        }
                                    ]
                                },
                                {
                                    "subject": "Horario: Lunes a Viernes de 9:00 a 20:00 hrs, Sábado y Domingo de 11:00 a 20:00 hrs",
                                    "paragraphs":[
                                        {
                                            "text": "Preguntas, sugerencias y/o comentarios adicionales, puedes escribirnos a: sears.internet@sears.com.mx"
                                        }
                                    ]
                                }
                               
                            ]
                        },
                        {
                            "name": "Política de envío",
                            "action": "",
                            "id": 6,
                            "description": [
                                {
                                    "subject": "",
                                    "paragraphs":[
                                        {
                                            "text": "• Nuestro servicio de entrega sólo está disponible en la República Mexicana."
                                        },
                                        {
                                            "text": "• Sears subcontrata a las mejores empresas especializadas en mensajería para llevar a cabo la entrega."
                                        },
                                        {
                                            "text": "• Es importante especificar si tu compra es un regalo, para no enviar la envoltura y no agregar los tickets al paquete."
                                        },
                                        {
                                            "text": "• Revisa que todos tus datos están correctos y completos ya que de esto depende el éxito de tu entrega."
                                        },
                                        {
                                            "text": "• El tiempo de entrega inicia a partir de la aplicación del cobro, lo cual te será notificado por correo electrónico en un periodo aproximado de 48 a 72 horas a partir de la compra."
                                        },
                                        {
                                            "text": "• Los tiempos de entrega varían de acuerdo a la mensajería seleccionada en función del destino y ocurren en cualquier horario del día."
                                        },
                                        {
                                            "text": "• Con el fin de ofrecerte mayor seguridad en tu entrega, toda nuestra mercancía viaja asegurada."
                                        },
                                        {
                                            "text": "• Todos tus productos adquiridos serán empacados sin cargo. Adicionalmente, para mandar tus regalos empacaremos con la imagen institucional de Sears (excepto para productos de gran volumen como línea blanca, muebles, pantallas, etc)."
                                        },
                                        {
                                            "text": "• Como complemento de tus regalos, podrás colocar un mensaje de felicitación que se imprime en una tarjeta colocándola en la envoltura del regalo, sin costo."
                                        },
                                        {
                                            "text": "• Al recibir su paquete, le recomendamos revisar que no presente ningún defecto o alteración, de ser así le pedimos por favor no recibirlo, anotar los comentarios en la boleta de la mensajería y reportarlo de inmediato al área de Atención a Clientes vía telefónica en el D.F. y área metropolitana al (01-55) 53 45 16 06 y desde el interior de la República al (01 800) 836 82 46, si prefieres vía correo electrónico a sears.internet@sears.com.mx, de lo contrario Sears no se hará responsable por los daños que puedan presentar los productos."
                                        },
                                        {
                                            "text": "• Para reportes de alguna de las mensajerías contratadas por Sears, por favor llámanos a nuestro Centro de Atención a Clientes al (01-55) 53 45 16 06 o desde el interior de la República al (01 800) 836 82 46 en cuanto recibas el paquete para iniciar la aclaración."
                                        },
                                        {
                                            "text": "• Al momento de la entrega en tu domicilio, le será solicitada a la persona que reciba la mercancía una identificación oficial (credencial de elector, pasaporte, forma migratoria FM2 o licencia de conducir), por lo que te pedimos tener este documento a la mano."
                                        },
                                        {
                                            "text": "• Si compraste algún producto de gran volumen (línea blanca, pantallas, muebles) y tu entrega es en el Valle de México, no se cobrará el envío ya que aplica como entrega realizada con Envíos Sears. En estos casos, la entrega se realizará en función de la programación disponible y la accesibilidad del destino."
                                        },
                                        {
                                            "text": "• Ningún personal del equipo de envíos de Sears ni de las mensajerías contratadas está autorizado a instalar equipos, retirar puertas, ni volar mercancía."
                                        },
                                        {
                                            "text": "• La instalación de plomería, electricidad y volado no están incluidos en el servicio de entrega, por lo que en ciertos domicilios puede aplicar un costo adicional, que te cotizaremos post-venta."
                                        }
                                    ]
                                }
                            ]
                        },
                        {
                            "name": "Políticas de compra",
                            "action": "",
                            "id": 7,
                            "description": [
                                {
                                    "subject": "",
                                    "paragraphs":[
                                        {
                                            "text": "• El número de orden que se asigna al realizar la transacción en el sitio de Internet de Sears no implica la aceptación de la transacción. En caso de tener algún problema con tu orden te será comunicado por correo electrónico o vía telefónica."
                                        },
                                        {
                                            "text": "• Esta mercancía está sujeta a disponibilidad. Si no hay existencias, te avisaremos oportunamente."
                                        },
                                        {
                                            "text": "• Es posible que la imagen no corresponda al producto publicado."
                                        },
                                        {
                                            "text": "• Si pagas con depósito referenciado, cuentas con TRES días para realizar tu pago. Haz clic aquí"
                                        },
                                        {
                                            "text": "• En caso de no recibir tu pago, será cancelada tu orden."
                                        },
                                        {
                                            "text": "• Los tiempos de entrega varían en función del destino y ocurren en cualquier momento del día."
                                        },
                                        {
                                            "text": "• Es necesario que la persona registrada como destinatario sea quien recibe la mercancía."
                                        },
                                        {
                                            "text": "• Consulta la sección de políticas para ver la mercancía aceptable en devolución."
                                        },
                                        {
                                            "text": "• Para cualquier duda o aclaración de tu orden de compra, llama al: (01-55) 5345 1606 o sears.internet@sears.com.mx"
                                        },
                                        {
                                            "text": "• Para compras con Tarjeta Sears, American Express, Tarjeta de Crédito VISA o Mastercard serás contactado en las próximas 24 horas al número telefónico indicado en tu orden, para validar tu compra."
                                        },
                                        {
                                            "text": "• En el caso de pago con tarjeta Sears, te pedimos tengas a la mano el estado de cuenta para indicarnos el no. de cliente internet así verificamos la autenticidad del titular."
                                        },
                                        {
                                            "text": "• En el caso del pago con Tarjeta AMEX, VISA y Mastercard te pedidos contactes a tu banco y solicites el no. de transacción con la que se registró el pago de tu pedido y enviarlo a la siguiente dirección de correo autorizaciones@sears.com.mx"
                                        },
                                        {
                                            "text": "• En casos de preventas, se cobra de inmediato tu orden y se generará el envío al momento de surtirse el producto."
                                        },
                                        {
                                            "text": "• En ciertas compras, Sears se reserva el derecho de realizar solicitud adicional de documentos y firmas.· En Mesa de Regalos la entrega de regalos está configurada de acuerdo a las especificaciones de los Festejados. Nos reservamos el derecho de utilizar la envoltura más adecuada para asegurar la entrega del regalo en óptimas condiciones."
                                        }
                                    ]
                                }
                               
                            ]
                        }
                    ]
                }
            },
            {
                "name": "Contacto",
                "id": 4,
                "action": "contact",
                "template": {
                    "title": "Atención a Clientes de Crédito SEARS",
                    "subtitle" : "" ,
                    "information": [
                        {
                            "subject": "",
                            "text": "Ofrece servicio en los siguientes casos:"
                        },
                        {
                            "subject": "",
                            "text": "• Reporte de tarjeta robada o extraviada."
                        },
                        {
                            "subject": "",
                            "text": "• Obtención de Número de Cliente."
                        },
                        {
                            "subject": "",
                            "text": "• Saldos y fechas de pago vía telefónica."
                        },
                        {
                            "subject": "",
                            "text": "• Aclaración o duda general sobre el Estado de Cuenta."
                        },
                        {
                            "subject": "",
                            "text": "D.F. y Área Metropolitana: 51-30-39-00"
                        },
                        {
                            "subject": "",
                            "text": "Interior de la República: 01-800-900-2123"
                        },
                        {
                            "subject": "Atención a Clientes de Servicio Técnico SEARS",
                            "text": ""
                        },
                        {
                            "subject": "",
                            "text": "D.F. y Área Metropolitana: 5130•3940"
                        },
                        {
                            "subject": "",
                            "text": "Interior de la República: 01•800•33•SEARS (73277)"
                        },
                        {
                            "subject": "Atención exclusiva a compras por Internet",
                            "text": ""
                        },
                        {
                            "subject": "",
                            "text": "Brindamos servicio personalizado a nuestros Clientes de Internet para atender temas como:"
                        },
                        {
                            "subject": "",
                            "text": "• Asesoría para navegar en la página y realizar sus compras."
                        },
                        {
                            "subject": "",
                            "text": "• Dudas, comentarios e información referentes a sus Compras realizadas por Internet."
                        },
                        {
                            "subject": "",
                            "text": "• Asistencia con contraseñas y activación de cuentas del portal."
                        },
                        {
                            "subject": "",
                            "text": "• Aclaración de pagos en Línea."
                        },
                        {
                            "subject": "",
                            "text": "Teléfono: D.F. y área Metropolitana (01 55) 53 45 16 06"
                        },
                        {
                            "subject": "",
                            "text": "Interior de la República (01 800) 836 82 46"
                        },
                        {
                            "subject": "",
                            "text": "Horario: Lunes a Viernes de 9:00 a 20:00 hrs, Sábado y Domingo de 11:00 a 20:00 hrs"
                        },
                        {
                            "subject": "",
                            "text": "Correo electrónico: sears.internet@sears.com.mx"
                        },
                        {
                            "subject": "",
                            "text": "Contáctanos"
                        },
                        {
                            "subject": "",
                            "text": "¿No encontraste lo que buscabas?"
                        }
                    ],
                    "button": {
                        "title": "Escríbenos",
                        "type": "button",
                        "action": "formContact"
                    }
                }
            }
        ]
    },
    "code": 200,
    "msg": "TODO OK"
}