{
    "success": true,
    "data": {
        "title": "Beneficios Crédito Sears",
        "img": "http://clauluna.com/img/credit_sears_5.jpg",
        "ul": [
            {
                "li": "- SIN Costo por apertura o anualidad, Comprobante de Ingresos o AVAL."
            },
            {
                "li": "- Hasta 20% de descuento en tu primer día de compras.Consulta marcas, artículos y departamentos participantes en piso de venta."
            },
            {
                "li": "- Descuentos en prestigiados establecimientos a nivel nacional, con solo presentar la tarjeta de crédito Sears."
            },
            {
                "li": "- Siempre las mejores condiciones de compra al pagar con tu Crédito Sears"
            },
            {
                "li": "- 10% de descuento en Restaurantes y pastelerías Sanborns y Sanborns café"
            },
            {
                "li": "- 25 días después de su fecha de corte para liquidar el saldo de la cuenta, sin cargo por intereses."
            },
            {
                "li": "- Aceptada como forma de pago en la página de internet Sears www.sears.com.mx"
            },
            {
                "li": "- Pago de la tarjeta en cualquier registradora de las tiendas Sears y a través de la página de Internet."
            },
            {
                "li": "- Promociones especiales para tarjetahabientes."
            },
            {
                "li": "- Seguros con cargo mensual a la tarjeta:",
                "p": [
                    {
                        "span": "● Protección personal Sears"
                    },
                    {
                        "span": "● Protección Personal Sears Plus"
                    },
                    {
                        "span": "● Membresía Medicall Home    con cargo a tu tarjeta de crédito anual o mensual."
                    }
                ]
            },
            {
                "li": "- Promociones especiales para tarjetahabientes."
            },
            {
                "li": "- Plan tarifario telcel con cargo a la tarjeta"
            },
            {
                "li": "- Plan tarifario telcel con cargo a la tarjeta"
            }
        ],
        "button":[
            {
                "type": "button",
                "title":"Ir al sitio de crédito Sears",
                "url": "https://www.sears.com.mx/credito-sears/beneficios/"
            }
        ]
    },
    "code": 200,
    "msg": "TODO OK"
}