{
    "success" : true ,
    "data"    :
    [
        {
            "type":"Preventivos",
            "options":
            [
                {
                            "img":"http://clauluna.com/img/afinacion.jpg",
                            "title":"Afinación"
                },
                {
                            "img":"http://clauluna.com/img/servicios/cambio-aceite.png",
                            "title":"Cambio de Aceite"
                },
                {
                            "img":"http://clauluna.com/img/servicios/alinacion-balanceo.png",
                            "title":"Alineación y Balanceo"
                },
                {
                            "img":"http://clauluna.com/img/servicios/limpieza-ajuste-frenos.png",
                            "title":"Limpieza y Ajuste de Frenos"
                }
            ]
        },
        {
            "type":"Correctivos",
            "options":
            [
                {
                        "img":"http://clauluna.com/img/servicios/amortiguadores-llantas.png",
                        "title":"Amortiguadores y Llantas"
                },
                {
                        "img":"http://clauluna.com/img/servicios/cambio-frenos.png",
                        "title":"Cambio de Frenos"
                },
                    {
                        "img":"http://clauluna.com/img/servicios/reparacion-motores.png",
                        "title":"Reparación de Motores"
                    },
                    {
                        "img":"http://clauluna.com/img/servicios/hojalateria.png",
                        "title":"Hojalatería y Pintura"
                    },
                    {
                        "img":"http://clauluna.com/img/servicios/clutch.png",
                        "title":"Clutch"
                    },
                    {
                        "img":"http://clauluna.com/img/servicios/transmisiones-hidraulicas.png",
                        "title":"Transmisiones Hidraúlicas y Stándar"
                    },
                    {
                        "img":"http://clauluna.com/img/servicios/direcciones.png",
                        "title":"Direcciones"
                    },
                    {
                        "img":"http://clauluna.com/img/servicios/distribucion.png",
                        "title":"Distribución"
                    }
            ]
        },
        {
                "type":"Otros Servicios",
                "options":
                [
                    {
                        "img":"http://clauluna.com/img/servicios/sistema-enfriamiento.png",
                        "title":"Sistema de Enfriamiento"
                    },
                    {
                        "img":"http://clauluna.com/img/servicios/acumuladores-sistema-electrico.png",
                        "title":"Acumuladores y Sistema Eléctrico"
                    },
                    {
                        "img":"http://clauluna.com/img/servicios/suspension.png",
                        "title":"Suspensión"
                    },
                    {
                        "img":"http://clauluna.com/img/servicios/diagnostico.png",
                        "title":"Diagnóstico con Scáner"
                    },
                    {
                        "img":"http://clauluna.com/img/servicios/verificacion.png",
                        "title":"Verificación"
                    },
                    {
                        "img":"http://clauluna.com/img/servicios/sistema-escape.png",
                        "title":"Sistema de Escape"
                    },
                    {
                        "img":"http://clauluna.com/img/servicios/pulido-encerado.png",
                        "title":"Pulido y Encerado"
                    },
                    {
                        "img":"http://clauluna.com/img/servicios/servicio-valet.png",
                        "title":"Servicio de Valet"
                    }
                ]
        }    
    ],
    "msg"     : "TODO OK" ,
    "code"    : 200
}