{
    "success" : true ,
    "data":
        {
            "id": 5916,
            "title": "Ella",
            "content":
            [
                {
                    "id": 4902,
                    "name": "Moda Dama",
                    "img":""
                },
                {
                    "id": 5222,
                    "name": "Juniors",
                    "img":""
                },
                {
                    "id": 5229,
                    "name": "Petite",
                    "img":""
                },
                {
                    "id": 12198,
                    "name": "Maternidad",
                    "img":""
                },
                {
                    "id": 12197,
                    "name": "Curvy",
                    "img":""
                },
                {
                    "id": 4905,
                    "name": "Lencería y Corsetería",
                    "img":""
                },
                {
                    "id": 4901,
                    "name": "Bolsos y Carteras",
                    "img":""
                },
                {
                    "id": 4903,
                    "name": "Relojes",
                    "img":""
                },
                {
                    "id": 5920,
                    "name": "Joyería",
                    "img":""
                },
                {
                    "id": 4560,
                    "name": "Accesorios",
                    "img":""
                }                
            ]
        },
    "msg"   : "TODO OK" ,
    "code"  : 200
}