{
    "success" : true ,
    "data":  
        {
            "id": 4502,
            "title": "Niños y Bebés",
            "content":
            [
                {
                    "id": 4571,
                    "name": "Muebles y Accesorios para Bebés",
                    "img":""
                },
                {
                    "id": 15369,
                    "name": "Ropa para Bebés",
                    "img":""
                },
                {
                    "id": 4573,
                    "name": "Ropa para Niñas",
                    "img":""
                },
                {
                    "id": 4572,
                    "name": "Ropa para Niños",
                    "img":""
                },
                {
                    "id": 14897,
                    "name": "Relojería Infantil",
                    "img":""
                },
                {
                    "id": 4574,
                    "name": "Juguetería",
                    "img":""
                }                
            ]
        },
    "msg"   : "TODO OK" ,
    "code"  : 200
}