{
    "success" : true ,
    "data": 
        {
            "id": 16100,
            "title": "Zapatería",
            "content":
            [
                {
                    "id": 5249,
                    "name": "Ella",
                    "img":""
                },
                {
                    "id": 4908,
                    "name": "Él",
                    "img":""
                },
                {
                    "id": 5084,
                    "name": "Niñas",
                    "img":""
                },
                {
                    "id": 5088,
                    "name": "Niños",
                    "img":""
                },
                {
                    "id": 16103,
                    "name": "Accesorios",
                    "img":""
                }                
            ]
        },
    "msg"   : "TODO OK" ,
    "code"  : 200
}