{
    "success" : true ,
    "data":
        {
            "id": 4503,
            "title": "Belleza",
            "content":
            [
                {
                    "id": 15685,
                    "name": "Fragancias",
                    "img":""
                },
                {
                    "id": 15693,
                    "name": "Cosméticos",
                    "img":""
                },
                {
                    "id": 15701,
                    "name": "Tratamientos",
                    "img":""
                },
                {
                    "id": 10824,
                    "name": "Vida y Salud",
                    "img":""
                },
                {
                    "id": 10832,
                    "name": "Estilismo",
                    "img":""
                },
                {
                    "id": 10830,
                    "name": "Higiene",
                    "img":""
                },
                {
                    "id": 10835,
                    "name": "Como lo vió en TV",
                    "img":""
                },
                {
                    "id": 15448,
                    "name": "Ellos",
                    "img":""
                },
                {
                    "id": 15717,
                    "name": "Óptica",
                    "img":""
                }
            ]
        },
    "msg"   : "TODO OK" ,
    "code"  : 200
}