{
    "success" : true ,
    "data": 
        {
            "id": 4550,
            "title": "Telefonía",
            "content":
            [
                {
                    "id": 16108,
                    "name": "Celulares",
                    "img":""
                },
                {
                    "id": 10098,
                    "name": "Fija",
                    "img":""
                },
                {
                    "id": 4610,
                    "name": "Accesorios",
                    "img":""
                }        
            ]
        },
    "msg"   : "TODO OK" ,
    "code"  : 200
}