{
    "success" : true ,
    "data": 
        {
            "id": 16649,
            "title": "Videojuegos",
            "content":
            [
                {
                    "id": 16659,
                    "name": "XBOX",
                    "img":""
                },
                {
                    "id": 16667,
                    "name": "PlayStation",
                    "img":""
                },
                {
                    "id": 16663,
                    "name": "Nintendo",
                    "img":""
                },
                {
                    "id": 16673,
                    "name": "Preventas",
                    "img":""
                },
                {
                    "id": 16671,
                    "name": "Novedades",
                    "img":""
                }                 
            ]
        },
    "msg"   : "TODO OK" ,
    "code"  : 200
}