{
    "success": true,
    "data": {
        "id": 10975,
        "action": "product",
        "data": [
            {
                "id": 104651,
                "img": "https://resources.sears.com.mx/medios-plazavip/fotos/productos_sears1/340x260/2723950.jpg",
                "title": "Juego De Colchón y Box Matrimonial Duo Bed Plus Restonic",
                "price": 11399,
                "sale_price": 28499,
                "discount": 60,
                "categories": [
                    {
                        "idCategoria": 4496,
                        "nombre": "Muebles",
                        "idPadre": 4496,
                        "categoriasHijas": [
                            {
                                "id": 4496,
                                "name": "Muebles",
                                "seo": "muebles",
                                "path_length": 0
                            },
                            {
                                "id": 10975,
                                "name": "Colchones y Boxes",
                                "seo": "colchones-y-boxes",
                                "path_length": 1
                            },
                            {
                                "id": 10978,
                                "name": "Colchones Matrimoniales",
                                "seo": "colchones-matrimoniales",
                                "path_length": 2,
                                "subcategory": []
                            }
                        ]
                    }
                ],
                "attributes": {
                    "marca": "RESTONIC"
                },
                "relevance": null
            },
            {
                "id": 133132,
                "img": "https://resources.sears.com.mx/medios-plazavip/fotos/productos_sears1/340x260/2810486.jpg",
                "title": "Juego De Colchón Y Box Individual Duo Bed Plus Restonic",
                "price": 9199,
                "sale_price": 22999,
                "discount": 60,
                "categories": [
                    {
                        "idCategoria": 4496,
                        "nombre": "Muebles",
                        "idPadre": 4496,
                        "categoriasHijas": [
                            {
                                "id": 4496,
                                "name": "Muebles",
                                "seo": "muebles",
                                "path_length": 0
                            },
                            {
                                "id": 10975,
                                "name": "Colchones y Boxes",
                                "seo": "colchones-y-boxes",
                                "path_length": 1
                            },
                            {
                                "id": 10976,
                                "name": "Colchones Individuales",
                                "seo": "colchones-individuales",
                                "path_length": 2,
                                "subcategory": []
                            }
                        ]
                    }
                ],
                "attributes": {
                    "marca": "RESTONIC"
                },
                "relevance": null
            },
            {
                "id": 172273,
                "img": "https://resources.sears.com.mx/medios-plazavip/fotos/productos_sears1/340x260/2924761.jpg",
                "title": "Juego De Colchón Y Box Matrimonial Frida Spring Air",
                "price": 7499,
                "sale_price": 18999,
                "discount": 61,
                "categories": [
                    {
                        "idCategoria": 4496,
                        "nombre": "Muebles",
                        "idPadre": 4496,
                        "categoriasHijas": [
                            {
                                "id": 4496,
                                "name": "Muebles",
                                "seo": "muebles",
                                "path_length": 0
                            },
                            {
                                "id": 10975,
                                "name": "Colchones y Boxes",
                                "seo": "colchones-y-boxes",
                                "path_length": 1
                            },
                            {
                                "id": 10978,
                                "name": "Colchones Matrimoniales",
                                "seo": "colchones-matrimoniales",
                                "path_length": 2,
                                "subcategory": []
                            }
                        ]
                    }
                ],
                "attributes": {
                    "marca": "SPRING AIR"
                },
                "relevance": null
            },
            {
                "id": 103907,
                "img": "https://resources.sears.com.mx/medios-plazavip/fotos/productos_sears1/340x260/2802155.jpg",
                "title": "Juego De Colchón Y Box Queen Size Ametist Serta",
                "price": 7739,
                "sale_price": 21499,
                "discount": 64,
                "categories": [
                    {
                        "idCategoria": 4496,
                        "nombre": "Muebles",
                        "idPadre": 4496,
                        "categoriasHijas": [
                            {
                                "id": 4496,
                                "name": "Muebles",
                                "seo": "muebles",
                                "path_length": 0
                            },
                            {
                                "id": 10975,
                                "name": "Colchones y Boxes",
                                "seo": "colchones-y-boxes",
                                "path_length": 1
                            },
                            {
                                "id": 10978,
                                "name": "Colchones Queen size",
                                "seo": "colchones-queen-size",
                                "path_length": 2,
                                "subcategory": []
                            }
                        ]
                    }
                ],
                "attributes": {
                    "marca": "SERTA"
                },
                "relevance": null
            },
            {
                "id": 102121,
                "img": "https://resources.sears.com.mx/medios-plazavip/fotos/productos_sears1/340x260/2672058.jpg",
                "title": "Colchón Individual Mónaco Plus Restonic",
                "price": 3399,
                "sale_price": 8499,
                "discount": 60,
                "categories": [
                    {
                        "idCategoria": 4496,
                        "nombre": "Muebles",
                        "idPadre": 4496,
                        "categoriasHijas": [
                            {
                                "id": 4496,
                                "name": "Muebles",
                                "seo": "muebles",
                                "path_length": 0
                            },
                            {
                                "id": 10975,
                                "name": "Colchones y Boxes",
                                "seo": "colchones-y-boxes",
                                "path_length": 1
                            },
                            {
                                "id": 10976,
                                "name": "Colchones Individuales",
                                "seo": "colchones-individuales",
                                "path_length": 2,
                                "subcategory": []
                            }
                        ]
                    }
                ],
                "attributes": {
                    "marca": "RESTONIC"
                },
                "relevance": null
            },
            {
                "id": 104572,
                "img": "https://resources.sears.com.mx/medios-plazavip/fotos/productos_sears1/340x260/2802156.jpg",
                "title": "Juego De Colchón Y Box King Size Ametist Serta",
                "price": 11049,
                "sale_price": 30699,
                "discount": 64,
                "categories": [
                    {
                        "idCategoria": 4496,
                        "nombre": "Muebles",
                        "idPadre": 4496,
                        "categoriasHijas": [
                            {
                                "id": 4496,
                                "name": "Muebles",
                                "seo": "muebles",
                                "path_length": 0
                            },
                            {
                                "id": 10975,
                                "name": "Colchones y Boxes",
                                "seo": "colchones-y-boxes",
                                "path_length": 1
                            },
                            {
                                "id": 10980,
                                "name": "Colchones King Size",
                                "seo": "colchones-king-size",
                                "path_length": 2,
                                "subcategory": []
                            }
                        ]
                    }
                ],
                "attributes": {
                    "marca": "SERTA"
                },
                "relevance": null
            },
            {
                "id": 103727,
                "img": "https://resources.sears.com.mx/medios-plazavip/fotos/productos_sears1/340x260/2802154.jpg",
                "title": "Juego De Colchón Y Box Matrimonial Ametist Serta",
                "price": 7199,
                "sale_price": 19999,
                "discount": 64,
                "categories": [
                    {
                        "idCategoria": 4496,
                        "nombre": "Muebles",
                        "idPadre": 4496,
                        "categoriasHijas": [
                            {
                                "id": 4496,
                                "name": "Muebles",
                                "seo": "muebles",
                                "path_length": 2
                            },
                            {
                                "id": 10975,
                                "name": "Colchones y Boxes",
                                "seo": "colchones-y-boxes",
                                "path_length": 1
                            },
                            {
                                "id": 10978,
                                "name": "Colchones Matrimoniales",
                                "seo": "colchones-matrimoniales",
                                "path_length": 0,
                                "subcategory": []
                            }
                        ]
                    }
                ],
                "attributes": {
                    "marca": "SERTA"
                },
                "relevance": null
            },
            {
                "id": 103507,
                "img": "https://resources.sears.com.mx/medios-plazavip/fotos/productos_sears1/340x260/2680273.jpg",
                "title": "Colchón Matrimonial Summit Plus Restonic",
                "price": 5999,
                "sale_price": 14999,
                "discount": 60,
                "categories": [
                    {
                        "idCategoria": 4496,
                        "nombre": "Muebles",
                        "idPadre": 4496,
                        "categoriasHijas": [
                            {
                                "id": 4496,
                                "name": "Muebles",
                                "seo": "muebles",
                                "path_length": 0
                            },
                            {
                                "id": 10975,
                                "name": "Colchones y Boxes",
                                "seo": "colchones-y-boxes",
                                "path_length": 1
                            },
                            {
                                "id": 10978,
                                "name": "Colchones Matrimoniales",
                                "seo": "colchones-matrimoniales",
                                "path_length": 2,
                                "subcategory": []
                            }
                        ]
                    }
                ],
                "attributes": {
                    "marca": "RESTONIC"
                },
                "relevance": null
            },
            {
                "id": 103599,
                "img": "https://resources.sears.com.mx/medios-plazavip/fotos/productos_sears1/340x260/2672064.jpg",
                "title": "Colchón King Size Mónaco Plus Restonic",
                "price": 6319,
                "sale_price": 15799,
                "discount": 60,
                "categories": [
                    {
                        "idCategoria": 4496,
                        "nombre": "Muebles",
                        "idPadre": 4496,
                        "categoriasHijas": [
                            {
                                "id": 4496,
                                "name": "Muebles",
                                "seo": "muebles",
                                "path_length": 0
                            },
                            {
                                "id": 10975,
                                "name": "Colchones y Boxes",
                                "seo": "colchones-y-boxes",
                                "path_length": 1
                            },
                            {
                                "id": 10978,
                                "name": "Colchones King Size",
                                "seo": "colchones-king-size",
                                "path_length": 2,
                                "subcategory": []
                            }
                        ]
                    }
                ],
                "attributes": {
                    "marca": "RESTONIC"
                },
                "relevance": null
            },
            {
                "id": 102883,
                "img": "https://resources.sears.com.mx/medios-plazavip/fotos/productos_sears1/340x260/2672060.jpg",
                "title": "Colchón Restonic Matrimonial Mónaco Plus",
                "price": 4399,
                "sale_price": 10999,
                "discount": 60,
                "categories": [
                    {
                        "idCategoria": 4496,
                        "nombre": "Muebles",
                        "idPadre": 4496,
                        "categoriasHijas": [
                            {
                                "id": 4496,
                                "name": "Muebles",
                                "seo": "muebles",
                                "path_length": 0
                            },
                            {
                                "id": 10975,
                                "name": "Colchones y Boxes",
                                "seo": "colchones-y-boxes",
                                "path_length": 1
                            },
                            {
                                "id": 10978,
                                "name": "Colchones Matrimoniales",
                                "seo": "colchones-matrimoniales",
                                "path_length": 2,
                                "subcategory": []
                            }
                        ]
                    }
                ],
                "attributes": {
                    "marca": "RESTONIC"
                },
                "relevance": null
            },
            {
                "id": 160512,
                "img": "https://resources.sears.com.mx/medios-plazavip/fotos/productos_sears1/340x260/2888490.jpg",
                "title": "Juego Queen Size Versant Serta",
                "price": 17639,
                "sale_price": 48999,
                "discount": 64,
                "categories": [
                    {
                        "idCategoria": 4496,
                        "nombre": "Muebles",
                        "idPadre": 4496,
                        "categoriasHijas": [
                            {
                                "id": 4496,
                                "name": "Muebles",
                                "seo": "muebles",
                                "path_length": 0
                            },
                            {
                                "id": 10975,
                                "name": "Colchones y Boxes",
                                "seo": "colchones-y-boxes",
                                "path_length": 1
                            },
                            {
                                "id": 10979,
                                "name": "Colchones Queen size",
                                "seo": "colchones-queen-size",
                                "path_length": 2,
                                "subcategory": []
                            }
                        ]
                    }
                ],
                "attributes": {
                    "marca": "SERTA"
                },
                "relevance": null
            },
            {
                "id": 103094,
                "img": "https://resources.sears.com.mx/medios-plazavip/fotos/productos_sears1/340x260/2672062.jpg",
                "title": "Colchón Queen Size Mónaco Plus Restonic",
                "price": 4799,
                "sale_price": 11999,
                "discount": 60,
                "categories": [
                    {
                        "idCategoria": 0,
                        "nombre": "Colchones Queen size",
                        "idPadre": 0,
                        "categoriasHijas": [
                            {
                                "id": 10979,
                                "name": "Colchones Queen size",
                                "seo": "colchones-queen-size",
                                "path_length": 0,
                                "subcategory": []
                            },
                            {
                                "id": 10975,
                                "name": "Colchones y Boxes",
                                "seo": "colchones-y-boxes",
                                "path_length": 1
                            },
                            {
                                "id": 4496,
                                "name": "Muebles",
                                "seo": "muebles",
                                "path_length": 2
                            }
                        ]
                    }
                ],
                "attributes": {
                    "marca": "RESTONIC"
                },
                "relevance": null
            },
            {
                "id": 155330,
                "img": "https://resources.sears.com.mx/medios-plazavip/fotos/productos_sears1/340x260/2874549.jpg",
                "title": "Colchón Matrimonial 50 Aniversario Vittorio Benzi",
                "price": 4599,
                "sale_price": 8999,
                "discount": 49,
                "categories": [
                    {
                        "idCategoria": 4496,
                        "nombre": "Muebles",
                        "idPadre": 4496,
                        "categoriasHijas": [
                            {
                                "id": 4496,
                                "name": "Muebles",
                                "seo": "muebles",
                                "path_length": 0
                            },
                            {
                                "id": 10975,
                                "name": "Colchones y Boxes",
                                "seo": "colchones-y-boxes",
                                "path_length": 1
                            },
                            {
                                "id": 10978,
                                "name": "Colchones Matrimoniales",
                                "seo": "colchones-matrimoniales",
                                "path_length": 2,
                                "subcategory": []
                            }
                        ]
                    }
                ],
                "attributes": {
                    "marca": "VITTORIO BENZI"
                },
                "relevance": null
            },
            {
                "id": 140064,
                "img": "https://resources.sears.com.mx/medios-plazavip/fotos/productos_sears1/340x260/2824249.jpg",
                "title": "Juego Matrimonial Scandinavian Narvik Spring Air",
                "price": 11199,
                "sale_price": 27999,
                "discount": 60,
                "categories": [
                    {
                        "idCategoria": 4496,
                        "nombre": "Muebles",
                        "idPadre": 4496,
                        "categoriasHijas": [
                            {
                                "id": 4496,
                                "name": "Muebles",
                                "seo": "muebles",
                                "path_length": 0
                            },
                            {
                                "id": 10975,
                                "name": "Colchones y Boxes",
                                "seo": "colchones-y-boxes",
                                "path_length": 1
                            },
                            {
                                "id": 10978,
                                "name": "Colchones Matrimoniales",
                                "seo": "colchones-matrimoniales",
                                "path_length": 2,
                                "subcategory": []
                            }
                        ]
                    }
                ],
                "attributes": {
                    "marca": "SPRING AIR"
                },
                "relevance": null
            },
            {
                "id": 105399,
                "img": "https://resources.sears.com.mx/medios-plazavip/fotos/productos_sears1/340x260/2594256.jpg",
                "title": "Juego De Colchón Y Box Queen Size Montecarlo Sealy",
                "price": 24399,
                "sale_price": 60999,
                "discount": 60,
                "categories": [
                    {
                        "idCategoria": 4496,
                        "nombre": "Muebles",
                        "idPadre": 4496,
                        "categoriasHijas": [
                            {
                                "id": 4496,
                                "name": "Muebles",
                                "seo": "muebles",
                                "path_length": 0
                            },
                            {
                                "id": 10975,
                                "name": "Colchones y Boxes",
                                "seo": "colchones-y-boxes",
                                "path_length": 1
                            },
                            {
                                "id": 10979,
                                "name": "Colchones Queen size",
                                "seo": "colchones-queen-size",
                                "path_length": 2,
                                "subcategory": []
                            }
                        ]
                    }
                ],
                "attributes": {
                    "marca": "SEALY"
                },
                "relevance": null
            },
            {
                "id": 105566,
                "img": "https://resources.sears.com.mx/medios-plazavip/fotos/productos_sears1/340x260/2594257.jpg",
                "title": "Juego De Colchón Y Box King Size Montecarlo Sealy",
                "price": 32399,
                "sale_price": 80999,
                "discount": 60,
                "categories": [
                    {
                        "idCategoria": 4496,
                        "nombre": "Colchones King size",
                        "idPadre": 4496,
                        "categoriasHijas": [
                            {
                                "id": 4496,
                                "name": "Muebles",
                                "seo": "muebles",
                                "path_length": 0
                            },
                            {
                                "id": 10975,
                                "name": "Colchones y Boxes",
                                "seo": "colchones-y-boxes",
                                "path_length": 1
                            },
                            {
                                "id": 10980,
                                "name": "Colchones King size",
                                "seo": "colchones-king-size",
                                "path_length": 2,
                                "subcategory": []
                            }
                        ]
                    }
                ],
                "attributes": {
                    "marca": "SEALY"
                },
                "relevance": null
            },
            {
                "id": 104152,
                "img": "https://resources.sears.com.mx/medios-plazavip/fotos/productos_sears1/340x260/2680275.jpg",
                "title": "Colchón King Size Summit Plus Restonic",
                "price": 8519,
                "sale_price": 21299,
                "discount": 60,
                "categories": [
                    {
                        "idCategoria": 4496,
                        "nombre": "Muebles",
                        "idPadre": 4496,
                        "categoriasHijas": [
                            {
                                "id": 4496,
                                "name": "Muebles",
                                "seo": "muebles",
                                "path_length": 0
                            },
                            {
                                "id": 10975,
                                "name": "Colchones y Boxes",
                                "seo": "colchones-y-boxes",
                                "path_length": 1
                            },
                            {
                                "id": 10980,
                                "name": "Colchones King size",
                                "seo": "colchones-king-size",
                                "path_length": 2,
                                "subcategory": []
                            }
                        ]
                    }
                ],
                "attributes": {
                    "marca": "RESTONIC"
                },
                "relevance": null
            },
            {
                "id": 155332,
                "img": "https://resources.sears.com.mx/medios-plazavip/fotos/productos_sears1/340x260/2874635.jpg",
                "title": "Juego Matrimonial Maple Restonic",
                "price": 6699,
                "sale_price": 10999,
                "discount": 60,
                "categories": [
                    {
                        "idCategoria": 4496,
                        "nombre": "Muebles",
                        "idPadre": 4496,
                        "categoriasHijas": [
                            {
                                "id": 10978,
                                "name": "Colchones Matrimoniales",
                                "seo": "colchones-matrimoniales",
                                "path_length": 0,
                                "subcategory": []
                            },
                            {
                                "id": 10975,
                                "name": "Colchones y Boxes",
                                "seo": "colchones-y-boxes",
                                "path_length": 1
                            },
                            {
                                "id": 4496,
                                "name": "Muebles",
                                "seo": "muebles",
                                "path_length": 2
                            }
                        ]
                    }
                ],
                "attributes": {
                    "marca": "RESTONIC"
                },
                "relevance": null
            },
            {
                "id": 160509,
                "img": "https://resources.sears.com.mx/medios-plazavip/fotos/productos_sears1/340x260/2888494.jpg",
                "title": "Juego Queen Size Heavenly Serta",
                "price": 16399,
                "sale_price": 40999,
                "discount": 39,
                "categories": [
                    {
                        "idCategoria": 4496,
                        "nombre": "Muebles",
                        "idPadre": 4496,
                        "categoriasHijas": [
                            {
                                "id": 4496,
                                "name": "Muebles",
                                "seo": "muebles",
                                "path_length": 0
                            },
                            {
                                "id": 10975,
                                "name": "Colchones y Boxes",
                                "seo": "colchones-y-boxes",
                                "path_length": 1
                            },
                            {
                                "id": 10979,
                                "name": "Colchones Queen Size",
                                "seo": "colchones-queen-size",
                                "path_length": 2,
                                "subcategory": []
                            }
                        ]
                    }
                ],
                "attributes": {
                    "marca": "SERTA"
                },
                "relevance": null
            },
            {
                "id": 103787,
                "img": "https://resources.sears.com.mx/medios-plazavip/fotos/productos_sears1/340x260/2757221.jpg",
                "title": "Colchón Matrimonial Bamboo Plus Restonic",
                "price": 6919,
                "sale_price": 17299,
                "discount": 60,
                "categories": [
                    {
                        "idCategoria": 0,
                        "nombre": "Muebles",
                        "idPadre": 0,
                        "categoriasHijas": [
                            {
                                "id": 4496,
                                "name": "Muebles",
                                "seo": "muebles",
                                "path_length": 0
                            },
                            {
                                "id": 10975,
                                "name": "Colchones y Boxes",
                                "seo": "colchones-y-boxes",
                                "path_length": 1
                            },
                            {
                                "id": 10978,
                                "name": "Colchones Matrimoniales",
                                "seo": "colchones-matrimoniales",
                                "path_length": 2,
                                "subcategory": []
                            }
                        ]
                    }
                ],
                "attributes": {
                    "marca": "RESTONIC"
                },
                "relevance": null
            }
        ]
    },
    "msg": "TODO OK",
    "code": 200
}