{
    "success" : true ,
    "data":
    [
        {
            "title":"Ingresa  tu código postal",
            "ul" :
            [
                {
                    "li":
                    [
                        {
                            "cp": "02450",
                            "delagation":"Las Trancas"
                        }
                    ]
                },
                {
                    "li":                    
                    [
                        {
                            "cp": "02450",
                            "delegation":"Miguel Hidalgo"
                        }
                    ]
                }
            ],
            "text":"Tiempo estimado de entrega:",
            "text2":"7 días habiles."
        }
    ],
    "msg"   : "TODO OK",
    "code"  : 200 
}