{
    "success" : true ,
    "data":
    [
        {
            "title":"Políticas de Garantía y devolución",
            "ul":
            [
                {
                    "li":"Nuestra política de devolución es muy sencilla. Podrás devolver cualquier artículo comprado en Sears Internet por las siguientes causas: Si el artículo presenta defectos de fabricación. Si existe equivocación en el artículo enviado, conservando la envoltura original de celofán (emplaye) y sin presentar muestras de maltrato."
                },
                {
                    "li":"En la recepción de mercancía errónea o dañada se aplicará el cambio físico de la misma solo si ésta fue reportada durante las primeras 72 horas posteriores a su entrega, a los siguientes teléfonos: Atención a Clientes: Teléfono: D.F. y area Metropolitana (01 55) 53 45 16 06. Interior de la Republica (01 800) 836 82 46.  Horario: Lunes a Viernes de 9:00 a 20:00 hrs, Sábado y Domingo de 11:00 a 20:00 hrs. La garantía a productos eléctricos y electrónicos será válida únicamente durante los 30 días naturales a la recepción de los mismos. No hay Cambios ni Devoluciones en los siguientes artículos o departamentos: Joyería fina y de fantasía, Lencería y Cosetería, Ropa Interior para Caballero, Niño, Niña y Bebes,perfumería, cosméticos, tratamientos dermatológicos, telefonía celular, Relojeria, Software, Consolas de Videojuegos, Accesorios y juegos. En Computación, Tablets, iPods, Telefonía celular, la garantía es directamente con el proveedor. Por disposición de PROFECO en colchones no se aceptan devoluciones ni cambios."
                },
                {
                    "li":"Telefonia Celular: La garantía y servicio en aparatos celulares adquiridos en Sears Internet se aplicará de forma directa con el proveedor Telcel, conforme a sus políticas, procedimientos y restricciones. Para esto deberás acudir al Centro de Servicio Telcel más cercano para la evaluación de tu equipo. Procedimiento para la devolución en una tienda Sears. Si realizas la devolución de la mercancía, deberás dirigirte al departamento de Servicio al cliente de la tienda Sears más cercana, presentando la mercancía, la factura origina ó Ticket de compra y la tarjeta de crédito en la cual se generó el cargo. En caso de que se haya enviado otra mercancía por equivocación o que presente algún defecto de fabricación, se podrá realizar el cambio físico, si en la tienda Sears a la que acudiste se cuenta con la existencia. Si la tienda Sears no cuenta con la existencia, podrás escoger otro artículo equivalente de tu preferencia, o en caso contrario, se realizará el reembolso a tu tarjeta de crédito.Si se envió otra mercancía por equivocación o presenta algún defecto de fabricación, se realizará el reembolso total de la mercancía, más los gastos de envío. Si únicamente deseas cancelar tu compra, se realizará el reembolso por el importe de la mercancía, sin incluir los gatos de envío."
                },
                {
                    "li":"Procedimiento para devoluciones por servicio de mensajería Si en tu localidad no cuentas con ninguna tienda Sears, podrás enviar la mercancía, utilizando de preferencia, la misma compañía de mensajería que le entregó la mercancía, asegurando perfectamente el paquete el cual deberá contener la factura original, una nota aclaratoria que indique el motivo de la devolución, y si deseas la reposición del artículo o el reembolso de tu dinero. Si se envía la mercancía por mensajería, deberás asegurarte de anotar correctamente el siguiente destinatario: Ventas Internet Sears / Sears Operadora México, S.A. de C.V. Norte 45 Nº 1014 Colonia Industrial Vallejo México D.F., C.P. 02300. Al momento en que nos sea entregada la devolución, nos pondremos en contacto contigo para confirmar la reposición de la mercancía o el reembolso. Si no has recibido la mercancía, podrás enviarnos un e-mail a: sears.internet@sears.com.mx ó comunicarte al teléfono: Teléfono: D.F. y area Metropolitana (01 55) 53 45 16 06 Interior de la Republica (01 800) 836 82 46 Horario: Lunes a Viernes de 9:00 a 20:00 hrs, Sábado y Domingo de 11:00 a 20:00 hrs Preguntas, sugerencias y/o comentarios adicionales, puedes escribirnos a: sears.internet@sears.com.mx"
                }
            ]
        }
    ],
    "msg"   : "TODO OK",
    "code"  : 200 
}