{
    "success" : true ,
    "data":
    [
        {
            "title":"Formas de Pago",
            "ul":
            [
                {
                    "id": 20,
                    "img": "https://staasobj-api.telmex.com/swift/v1/sears/landings/pago2.gif",
                    "li":"Tarjeta SEARS"
                },
                {
                    "id": 21,
                    "img": "https://staasobj-api.telmex.com/swift/v1/sears/landings/pago2.gif",
                    "li":"Pagos con tarjeta de crédito y débito"
                },
                {
                    "id": 22,
                    "img": "https://staasobj-api.telmex.com/swift/v1/sears/landings/pago2.gif",
                    "li":"American express"
                },
                {
                    "id": 23,
                    "img": "https://staasobj-api.telmex.com/swift/v1/sears/landings/pago2.gif",
                    "li":"Paypal (Tarjeta de crédito y débito )"
                },
                {
                    "id": 24,
                    "img": "https://staasobj-api.telmex.com/swift/v1/sears/landings/pago2.gif",
                    "li":"Depósito y transferencia bancaria"
                }
            ]
        }
    ],
    "msg"   : "TODO OK",
    "code"  : 200 
}